{
  "selection": [
    {
      "order": 715,
      "name": "Configurations",
      "prevSize": 32
    },
    {
      "order": 716,
      "name": "System-Log",
      "prevSize": 32
    },
    {
      "order": 717,
      "name": "manual-alert"
    },
    {
      "order": 718,
      "name": "rotate-inverse"
    },
    {
      "order": 719,
      "name": "flag",
      "prevSize": 32
    },
    {
      "order": 720,
      "name": "rotate",
      "prevSize": 32
    },
    {
      "order": 721,
      "name": "star",
      "prevSize": 32
    },
    {
      "order": 722,
      "name": "copy",
      "prevSize": 32
    },
    {
      "order": 723,
      "name": "move",
      "prevSize": 32
    },
    {
      "order": 724,
      "name": "record",
      "prevSize": 32,
      "codes": [
        59743,
        59744,
        59745
      ]
    },
    {
      "order": 725,
      "name": "dropdown-icon",
      "prevSize": 32
    },
    {
      "order": 726,
      "name": "heading",
      "prevSize": 32
    },
    {
      "order": 727,
      "name": "radio",
      "prevSize": 32
    },
    {
      "order": 728,
      "name": "select-field",
      "prevSize": 32
    },
    {
      "order": 729,
      "name": "settings",
      "prevSize": 32
    },
    {
      "order": 730,
      "name": "table-sort",
      "prevSize": 32
    },
    {
      "order": 731,
      "name": "text-area",
      "prevSize": 32
    },
    {
      "order": 732,
      "name": "text-field",
      "prevSize": 32
    },
    {
      "order": 733,
      "name": "color-picker",
      "prevSize": 32
    },
    {
      "order": 734,
      "name": "checkbox",
      "prevSize": 32
    },
    {
      "order": 735,
      "name": "cross-with-circle",
      "prevSize": 32
    },
    {
      "order": 736,
      "name": "tick-with-circle",
      "prevSize": 32
    },
    {
      "order": 737,
      "name": "documentation",
      "prevSize": 32
    },
    {
      "order": 738,
      "ligatures": "add",
      "name": "add",
      "prevSize": 24
    },
    {
      "order": 739,
      "ligatures": "add_circle",
      "name": "add_circle",
      "prevSize": 24
    },
    {
      "order": 740,
      "ligatures": "clear, close",
      "name": "clear, close",
      "prevSize": 24
    },
    {
      "order": 741,
      "ligatures": "remove",
      "name": "remove",
      "prevSize": 24
    },
    {
      "order": 742,
      "ligatures": "remove_circle, do_not_disturb_on",
      "name": "remove_circle, do_not_disturb_on",
      "prevSize": 24
    },
    {
      "order": 743,
      "ligatures": "expand_less",
      "name": "expand_less",
      "prevSize": 24
    },
    {
      "order": 744,
      "ligatures": "expand_more",
      "name": "expand_more",
      "prevSize": 24
    },
    {
      "order": 745,
      "ligatures": "arrow_back_ios",
      "name": "arrow_back_ios",
      "prevSize": 24
    },
    {
      "order": 746,
      "ligatures": "arrow_forward_ios",
      "name": "arrow_forward_ios",
      "prevSize": 24
    },
    {
      "order": 747,
      "ligatures": "error",
      "prevSize": 24,
      "name": "error"
    },
    {
      "order": 748,
      "ligatures": "error_outline",
      "name": "error_outline",
      "prevSize": 24
    },
    {
      "order": 749,
      "ligatures": "warning, report_problem",
      "name": "warning, report_problem",
      "prevSize": 24
    },
    {
      "order": 750,
      "ligatures": "loop, sync",
      "name": "loop, sync",
      "prevSize": 24
    },
    {
      "order": 751,
      "ligatures": "mic",
      "name": "mic",
      "prevSize": 24
    },
    {
      "order": 752,
      "ligatures": "mic_none",
      "name": "mic_none",
      "prevSize": 24
    },
    {
      "order": 753,
      "ligatures": "mic_off",
      "name": "mic_off",
      "prevSize": 24
    },
    {
      "order": 754,
      "ligatures": "replay",
      "name": "replay",
      "prevSize": 24
    },
    {
      "order": 755,
      "ligatures": "videocam",
      "name": "videocam",
      "prevSize": 24
    },
    {
      "order": 756,
      "ligatures": "videocam_off",
      "name": "videocam_off",
      "prevSize": 24
    },
    {
      "order": 757,
      "ligatures": "volume_down",
      "name": "volume_down",
      "prevSize": 24
    },
    {
      "order": 758,
      "ligatures": "volume_mute",
      "name": "volume_mute",
      "prevSize": 24
    },
    {
      "order": 759,
      "ligatures": "volume_off",
      "name": "volume_off",
      "prevSize": 24
    },
    {
      "order": 760,
      "ligatures": "volume_up",
      "name": "volume_up",
      "prevSize": 24
    },
    {
      "order": 761,
      "ligatures": "chat",
      "name": "chat",
      "prevSize": 24
    },
    {
      "order": 762,
      "ligatures": "contact_phone",
      "name": "contact_phone",
      "prevSize": 24
    },
    {
      "order": 763,
      "ligatures": "expand_less",
      "name": "expand_less1",
      "prevSize": 24
    },
    {
      "order": 764,
      "ligatures": "expand_more",
      "name": "expand_more1",
      "prevSize": 24
    },
    {
      "order": 765,
      "ligatures": "arrow_back_ios",
      "name": "arrow_back_ios1",
      "prevSize": 24
    },
    {
      "order": 766,
      "ligatures": "arrow_forward_ios",
      "name": "arrow_forward_ios1",
      "prevSize": 24
    },
    {
      "order": 767,
      "ligatures": "star, grade",
      "name": "star1, grade",
      "prevSize": 24
    },
    {
      "order": 768,
      "ligatures": "star_outline",
      "name": "star_outline",
      "prevSize": 24
    },
    {
      "order": 769,
      "ligatures": "account_balance",
      "name": "account_balance",
      "prevSize": 24
    },
    {
      "order": 770,
      "ligatures": "account_box",
      "name": "account_box",
      "prevSize": 24
    },
    {
      "order": 771,
      "ligatures": "account_circle",
      "name": "account_circle",
      "prevSize": 24
    },
    {
      "order": 772,
      "ligatures": "assignment_ind",
      "name": "assignment_ind",
      "prevSize": 24
    },
    {
      "order": 773,
      "ligatures": "cached",
      "name": "cached",
      "prevSize": 24
    },
    {
      "order": 774,
      "ligatures": "check_circle",
      "name": "check_circle",
      "prevSize": 24
    },
    {
      "order": 775,
      "ligatures": "done",
      "name": "done",
      "prevSize": 24
    },
    {
      "order": 776,
      "ligatures": "lock_open",
      "name": "lock_open",
      "prevSize": 24
    },
    {
      "order": 777,
      "ligatures": "lock_outline",
      "name": "lock_outline",
      "prevSize": 24
    },
    {
      "order": 778,
      "name": "tomb",
      "prevSize": 32,
      "codes": [
        59690,
        59691
      ]
    },
    {
      "order": 779,
      "prevSize": 24,
      "name": "chevron-down"
    },
    {
      "order": 780,
      "prevSize": 32,
      "name": "check-circle"
    },
    {
      "order": 781,
      "prevSize": 32,
      "name": "minus"
    },
    {
      "order": 782,
      "prevSize": 24,
      "name": "delete"
    },
    {
      "order": 783,
      "name": "insights",
      "prevSize": 24
    },
    {
      "order": 784,
      "name": "low-risk",
      "prevSize": 24
    },
    {
      "order": 785,
      "name": "high-risk",
      "prevSize": 24
    },
    {
      "order": 786,
      "name": "caret-right",
      "prevSize": 24
    },
    {
      "order": 787,
      "name": "edit",
      "prevSize": 24
    },
    {
      "order": 788,
      "name": "medium-risk",
      "prevSize": 24
    },
    {
      "order": 789,
      "name": "trash",
      "prevSize": 24
    },
    {
      "order": 790,
      "name": "add-customer",
      "prevSize": 24
    },
    {
      "order": 791,
      "name": "blacklist",
      "prevSize": 24
    },
    {
      "order": 792,
      "name": "calendar",
      "prevSize": 24
    },
    {
      "order": 793,
      "name": "caret-down",
      "prevSize": 24
    },
    {
      "order": 794,
      "name": "caret-left",
      "prevSize": 24
    },
    {
      "order": 795,
      "name": "change-password",
      "prevSize": 24
    },
    {
      "order": 796,
      "name": "check",
      "prevSize": 24
    },
    {
      "order": 797,
      "name": "cloud",
      "prevSize": 24
    },
    {
      "order": 798,
      "name": "customer-profil",
      "prevSize": 24
    },
    {
      "order": 799,
      "name": "documentation1",
      "prevSize": 24
    },
    {
      "order": 800,
      "name": "eforms",
      "prevSize": 24
    },
    {
      "order": 801,
      "name": "enforcement",
      "prevSize": 24
    },
    {
      "order": 802,
      "name": "export",
      "prevSize": 24
    },
    {
      "order": 803,
      "name": "eye-view",
      "prevSize": 24
    },
    {
      "order": 804,
      "name": "graph",
      "prevSize": 24
    },
    {
      "order": 805,
      "name": "id-card",
      "prevSize": 24
    },
    {
      "order": 806,
      "name": "loading",
      "prevSize": 24
    },
    {
      "order": 807,
      "name": "loading-spinner",
      "prevSize": 24,
      "codes": [
        59719,
        59720,
        59721,
        59722,
        59723,
        59724,
        59725,
        59726
      ]
    },
    {
      "order": 808,
      "name": "person",
      "prevSize": 24
    },
    {
      "order": 809,
      "name": "plus",
      "prevSize": 24
    },
    {
      "order": 810,
      "name": "review",
      "prevSize": 24
    },
    {
      "order": 811,
      "name": "sanction",
      "prevSize": 24
    },
    {
      "order": 812,
      "name": "search",
      "prevSize": 24
    },
    {
      "order": 813,
      "name": "setting",
      "prevSize": 24
    },
    {
      "order": 814,
      "name": "sign-out",
      "prevSize": 24
    },
    {
      "order": 815,
      "name": "system-users",
      "prevSize": 24
    },
    {
      "order": 816,
      "name": "world",
      "prevSize": 24
    },
    {
      "order": 817,
      "name": "wrong",
      "prevSize": 24
    }
  ],
  "metadata": {
    "name": "Idenfo",
    "importSize": {
      "width": 16,
      "height": 17
    },
    "iconsHash": 608789721
  },
  "height": 1024,
  "prevSize": 32,
  "icons": [
    {
      "paths": [
        "M675.84 512l5.12-5.12c25.6 10.24 56.32 15.36 81.92 15.36 143.36 0 261.12-117.76 261.12-261.12 0-35.84-10.24-76.8-25.6-107.52l-25.6-51.2-143.36 143.36c-5.12 5.12-15.36 10.24-25.6 10.24s-20.48-5.12-25.6-10.24c-5.12-5.12-10.24-15.36-10.24-25.6s5.12-20.48 10.24-25.6l143.36-143.36-51.2-25.6c-35.84-15.36-71.68-25.6-107.52-25.6-143.36 0-261.12 117.76-261.12 261.12 0 30.72 5.12 56.32 15.36 81.92l-56.32 56.32-148.48-148.48v-133.12l-204.8-122.88-107.52 107.52 122.88 204.8h133.12l148.48 148.48-368.64 368.64c-20.48 20.48-35.84 51.2-35.84 81.92s10.24 61.44 35.84 81.92c20.48 20.48 51.2 35.84 81.92 35.84s61.44-10.24 81.92-35.84l312.32-312.32 312.32 312.32c20.48 20.48 51.2 35.84 81.92 35.84s61.44-10.24 81.92-35.84c20.48-20.48 35.84-51.2 35.84-81.92s-10.24-61.44-35.84-81.92l-312.32-312.32zM230.4 230.4h-61.44l-66.56-112.64 20.48-20.48 112.64 66.56v66.56zM138.24 931.84c-5.12 5.12-15.36 10.24-25.6 10.24s-20.48-5.12-25.6-10.24c-5.12-5.12-10.24-15.36-10.24-25.6s5.12-20.48 10.24-25.6l522.24-522.24-10.24-25.6c-10.24-25.6-15.36-51.2-15.36-76.8 0-97.28 81.92-179.2 179.2-179.2 5.12 0 10.24 0 15.36 0l-56.32 56.32c-20.48 20.48-35.84 51.2-35.84 81.92s10.24 61.44 35.84 81.92c20.48 20.48 51.2 35.84 81.92 35.84s61.44-10.24 81.92-35.84l56.32-56.32c0 5.12 0 10.24 0 15.36 0 97.28-81.92 179.2-179.2 179.2-25.6 0-51.2-5.12-76.8-15.36l-25.6-10.24-522.24 522.24zM931.84 931.84c-5.12 5.12-15.36 10.24-25.6 10.24s-20.48-5.12-25.6-10.24l-312.32-312.32 51.2-51.2 312.32 312.32c5.12 5.12 10.24 15.36 10.24 25.6s0 20.48-10.24 25.6z"
      ],
      "grid": 0,
      "tags": [
        "Configurations"
      ]
    },
    {
      "paths": [
        "M1013.76 747.52l-51.2-424.96c-5.12-61.44-35.84-112.64-87.040-143.36l-10.24-66.56c-5.12-66.56-66.56-112.64-128-107.52-30.72 5.12-61.44 20.48-76.8 40.96-20.48 20.48-25.6 51.2-25.6 81.92v81.92c-30.72 35.84-46.080 76.8-46.080 128v87.040c-20.48-5.12-46.080-10.24-71.68-10.24s-51.2 5.12-71.68 10.24v-87.040c0-51.2-20.48-97.28-51.2-128v-76.8c0-30.72-10.24-61.44-25.6-81.92-20.48-25.6-46.080-40.96-76.8-40.96-66.56-5.12-122.88 40.96-128 107.52l-10.24 66.56h5.12c-46.080 30.72-81.92 81.92-81.92 143.36v0l-51.2 424.96c-5.12 15.36-5.12 35.84-5.12 51.2 0 122.88 97.28 220.16 220.16 220.16 117.76 0 215.040-92.16 220.16-209.92v0-138.24c20.48-20.48 46.080-30.72 71.68-30.72s51.2 10.24 71.68 30.72v138.24c5.12 117.76 102.4 209.92 220.16 209.92 122.88 0 220.16-97.28 220.16-220.16-25.6-20.48-25.6-40.96-30.72-56.32zM230.4 117.76v0c0-25.6 20.48-40.96 46.080-35.84 30.72 5.12 35.84 35.84 35.84 46.080v25.6c-20.48-5.12-35.84-10.24-56.32-10.24-10.24 0-15.36 0-25.6 0v-25.6zM220.16 942.080c-76.8 0-138.24-61.44-138.24-138.24s61.44-138.24 138.24-138.24c76.8 0 138.24 61.44 138.24 138.24 0 71.68-61.44 138.24-138.24 138.24zM358.4 629.76c-35.84-30.72-87.040-51.2-138.24-51.2-40.96 0-81.92 10.24-117.76 30.72l35.84-281.6c0-61.44 51.2-107.52 107.52-107.52s107.52 51.2 107.52 107.52v302.080zM583.68 573.44c-20.48-10.24-46.080-15.36-71.68-15.36s-51.2 5.12-71.68 15.36v-66.56c20.48-10.24 46.080-20.48 71.68-20.48s51.2 5.12 71.68 20.48v66.56zM711.68 128c0-15.36 5.12-46.080 35.84-46.080 20.48 0 40.96 15.36 40.96 35.84l5.12 30.72c-5.12 0-15.36 0-20.48 0-20.48 0-40.96 5.12-61.44 10.24v-30.72zM660.48 332.8c0-61.44 51.2-107.52 107.52-107.52 61.44 0 107.52 51.2 107.52 107.52v0l35.84 281.6c-35.84-20.48-71.68-30.72-117.76-30.72-51.2 0-102.4 20.48-138.24 51.2v-302.080zM798.72 942.080c-76.8 0-138.24-61.44-138.24-138.24s61.44-138.24 138.24-138.24c76.8 0 138.24 61.44 138.24 138.24 5.12 71.68-61.44 138.24-138.24 138.24z",
        "M552.96 737.28c0 22.622-18.338 40.96-40.96 40.96s-40.96-18.338-40.96-40.96c0-22.622 18.338-40.96 40.96-40.96s40.96 18.338 40.96 40.96z"
      ],
      "grid": 0,
      "tags": [
        "System-Log"
      ]
    },
    {
      "paths": [
        "M867.388 475.859c-18.071-186.729-162.635-331.294-349.365-349.365v-96.376h-78.306v96.376c-186.729 18.071-331.294 162.635-349.365 349.365h-96.376v78.306h96.376c18.071 186.729 162.635 331.294 349.365 349.365v96.376h78.306v-96.376c186.729-18.071 331.294-162.635 349.365-349.365h96.376v-78.306h-96.376zM789.082 548.141c-18.071 144.565-132.518 252.988-271.059 271.059v-96.376h-78.306v96.376c-144.565-18.071-252.988-132.518-271.059-271.059h96.376v-78.306h-96.376c18.071-144.565 132.518-252.988 271.059-271.059v96.376h78.306v-96.376c144.565 18.071 252.988 132.518 271.059 271.059h-96.376v78.306h96.376z",
        "M542.118 512c0 33.267-26.968 60.235-60.235 60.235s-60.235-26.968-60.235-60.235c0-33.267 26.968-60.235 60.235-60.235s60.235 26.968 60.235 60.235z"
      ],
      "width": 964,
      "tags": [
        "manual-alert"
      ],
      "grid": 14
    },
    {
      "paths": [
        "M217.088 143.36l-25.259-31.403c-12.288 9.557-24.576 20.48-36.181 31.403l55.979 58.027c9.557-8.875 19.797-18.432 29.355-26.624 186.368-148.821 458.752-118.101 607.573 68.267 69.632 87.381 102.4 198.656 93.525 307.883l-91.477-114.688-62.123 49.835 174.763 218.453 218.453-174.763-49.835-62.123-109.909 88.064c4.096-47.787 1.365-95.573-7.509-141.995-15.701-79.872-51.2-157.013-102.4-221.184-85.333-106.496-207.531-174.080-343.381-189.099-135.851-15.701-269.653 23.211-376.149 108.544l24.576 31.403z",
        "M436.224 937.301l-13.653 79.189c28.672 5.461 57.344 7.509 86.699 7.509l0.683-79.872c-24.576 0-49.152-2.048-73.728-6.827z",
        "M582.997 939.349l12.971 78.507c27.989-4.779 56.661-12.288 83.968-21.845l-26.624-75.776c-22.528 7.509-46.421 13.653-70.315 19.115z",
        "M720.896 889.515l38.912 70.315c24.576-13.653 49.835-30.037 71.68-47.787l-49.835-62.123c-19.797 15.019-40.277 28.672-60.757 39.595z",
        "M365.909 918.869c-22.528-8.192-45.056-18.432-66.219-30.037l-39.595 69.632c25.259 13.653 51.883 25.941 79.189 35.499l26.624-75.093z",
        "M163.157 256l-64.171-47.787c-16.384 23.211-32.768 47.787-45.056 73.728l70.997 35.499c11.605-21.163 24.576-42.325 38.229-61.44z",
        "M80.555 530.432l-80.555 4.096c1.365 28.672 4.779 57.344 10.923 86.016l77.824-17.067c-4.779-24.576-7.509-49.152-8.192-73.045z",
        "M98.304 387.072l-76.459-23.893c-8.192 27.989-14.336 55.979-18.432 84.651l79.872 9.557c2.731-24.576 8.192-48.469 15.019-70.315z",
        "M110.592 673.109l-74.411 29.355c10.923 26.624 23.893 52.565 38.912 77.141l67.584-41.643c-12.288-20.48-23.893-43.008-32.085-64.853z",
        "M239.616 847.189c-19.115-15.019-36.181-32.085-52.565-50.517l-60.075 52.565c19.115 21.845 40.277 42.325 62.123 60.075l50.517-62.123z"
      ],
      "width": 1181,
      "tags": [
        "rotate-inverse"
      ],
      "grid": 14
    },
    {
      "paths": [
        "M876.544 53.931c-7.509-3.413-193.877-76.459-338.603 0.683-114.688 60.757-316.075 15.019-367.275 2.048v-39.595c0-9.557-7.509-17.067-17.067-17.067s-17.067 7.509-17.067 17.067v51.2c0 0 0 0.683 0 0.683s0 0.683 0 0.683v937.301c0 9.557 7.509 17.067 17.067 17.067s17.067-7.509 17.067-17.067v-403.456c38.912 9.557 123.563 27.989 210.944 27.989 60.757 0 122.88-8.875 172.715-34.816 130.389-69.632 307.883 0 309.931 0.683 5.461 2.048 10.923 1.365 15.701-2.048s7.509-8.192 7.509-14.336v-512c0-6.144-4.096-12.971-10.923-15.019zM853.333 557.739c-55.979-17.749-198.656-52.565-315.392 8.875-114.688 60.757-316.075 15.019-367.275 2.048v-477.184c65.536 16.384 262.827 57.344 383.659-6.827 111.957-59.392 258.731-17.067 299.008-3.413v476.501z"
      ],
      "tags": [
        "flag"
      ],
      "defaultCode": 59748,
      "grid": 14
    },
    {
      "paths": [
        "M1024 512c0-136.533-53.248-265.557-150.187-361.813-96.256-96.939-225.28-150.187-361.813-150.187-82.603 0-164.523 20.48-236.885 58.027-41.643 21.845-80.555 49.835-115.371 82.603v-140.629h-79.872v279.893h279.893v-79.872h-146.773c79.872-75.776 187.051-119.467 299.008-119.467 238.251 0 432.128 193.877 432.128 432.128 0 12.971-0.683 26.624-2.048 39.595l79.872 7.509c1.365-15.701 2.048-32.085 2.048-47.787v0z",
        "M175.445 783.019l-62.123 50.517c18.432 22.528 38.229 43.691 60.075 62.805l53.248-60.075c-19.115-16.384-36.181-34.133-51.2-53.248z",
        "M104.448 656.043l-75.776 26.624c9.557 27.307 21.845 53.931 35.499 79.189l69.632-38.912c-10.923-21.845-21.163-44.373-29.355-66.901z",
        "M79.872 512h-79.872c0 28.672 2.731 58.027 7.509 86.016l79.189-13.653c-4.779-23.211-6.827-47.787-6.827-72.363z",
        "M242.347 947.541c24.576 15.019 50.517 28.672 77.141 39.595l30.037-74.411c-22.528-8.875-44.373-20.48-64.853-32.768l-42.325 67.584z",
        "M904.533 692.907l72.363 33.451c12.288-25.941 21.845-53.931 29.355-81.237l-77.141-20.48c-6.144 22.528-14.336 45.739-24.576 68.267z",
        "M704.512 899.072l35.499 71.68c25.941-12.971 50.517-27.989 73.728-45.056l-47.104-64.853c-19.115 14.336-40.277 27.307-62.123 38.229z",
        "M821.931 813.056l57.344 55.979c19.797-20.48 38.229-43.008 54.613-66.901l-66.219-45.056c-12.971 19.115-28.672 38.229-45.739 55.979z",
        "M565.248 940.715l9.557 79.189c28.672-3.413 57.344-9.557 84.651-17.749l-23.211-76.459c-22.528 7.509-47.104 12.288-70.997 15.019z",
        "M402.773 1012.395c27.989 6.144 57.344 9.557 86.016 10.923l3.413-79.872c-24.576-1.365-48.469-4.096-72.363-9.557l-17.067 78.507z"
      ],
      "tags": [
        "rotate"
      ],
      "defaultCode": 59749,
      "grid": 14
    },
    {
      "paths": [
        "M1008.299 400.725l-342.699-49.835-153.6-310.613-153.6 310.613-342.699 49.835 247.808 241.664-58.709 341.333 307.2-161.109 306.517 161.109-58.709-341.333 248.491-241.664zM772.096 912.725l-260.096-136.533-260.096 136.533 49.835-290.133-210.944-204.8 290.816-42.325 130.389-264.192 130.389 264.192 290.816 42.325-210.261 205.483 49.152 289.451z"
      ],
      "attrs": [
        {
          "fill": "rgb(250, 201, 23)"
        }
      ],
      "colorPermutations": {
        "11271431641201315512502012312552552551": [
          {
            "f": 2
          }
        ]
      },
      "tags": [
        "star"
      ],
      "defaultCode": 59750,
      "grid": 14
    },
    {
      "paths": [
        "M651.638 0v93.091h-558.547v651.639h-93.091v-651.639c0-51.2 41.891-93.091 93.091-93.091h558.547zM791.27 186.182c51.2 0 93.092 41.891 93.092 93.091v651.635c0 51.2-41.892 93.092-93.092 93.092h-511.997c-51.2 0-93.091-41.892-93.091-93.092v-651.635c0-51.2 41.891-93.091 93.091-93.091h511.997zM279.273 930.908h511.997v-651.635h-511.997v651.635z"
      ],
      "width": 922,
      "tags": [
        "copy"
      ],
      "defaultCode": 59746,
      "grid": 14
    },
    {
      "paths": [
        "M819.169 305.534l-56.509 56.575 107.156 107.276h-319.078v-317.458l109.588 109.725 56.509-56.573-204.836-205.079-204.832 205.081 56.506 56.571 107.15-107.278v315.011h-315.858l106.374-106.503-56.508-56.575-204.832 205.082 204.832 205.078 56.508-56.571-110.372-110.505h319.856v320.236l-107.15-107.279-56.506 56.571 204.832 205.082 204.836-205.082-56.509-56.571-109.588 109.727v-322.683h321.516l-109.594 109.727 56.509 56.571 204.831-205.079-204.831-205.076z"
      ],
      "tags": [
        "move"
      ],
      "defaultCode": 59747,
      "grid": 14
    },
    {
      "paths": [
        "M512 1024c282.77 0 512-229.23 512-512s-229.23-512-512-512c-282.77 0-512 229.23-512 512s229.23 512 512 512z",
        "M512 944c238.587 0 432-193.413 432-432s-193.413-432-432-432c-238.587 0-432 193.413-432 432s193.413 432 432 432z",
        "M512 704c106.038 0 192-85.962 192-192s-85.962-192-192-192c-106.038 0-192 85.962-192 192s85.962 192 192 192z"
      ],
      "attrs": [
        {
          "fill": "rgb(255, 255, 255)"
        },
        {
          "fill": "rgb(201, 31, 55)"
        },
        {
          "fill": "rgb(255, 255, 255)"
        }
      ],
      "isMulticolor": true,
      "colorPermutations": {
        "11271431641179951651201315512552552551": [
          {
            "f": 4
          },
          {
            "f": 1
          },
          {
            "f": 4
          }
        ],
        "11271431641201315512502012312552552551": [
          {
            "f": 4
          },
          {
            "f": 1
          },
          {
            "f": 4
          }
        ]
      },
      "tags": [
        "record"
      ],
      "defaultCode": 59743,
      "grid": 14
    },
    {
      "paths": [
        "M143.36 358.4c-76.8 0-143.36 61.44-143.36 138.24s66.56 138.24 143.36 138.24 143.36-61.44 143.36-138.24c0-76.8-66.56-138.24-143.36-138.24z",
        "M880.64 358.4c-76.8 0-143.36 61.44-143.36 138.24s66.56 138.24 143.36 138.24c76.8 0 143.36-61.44 143.36-138.24s-66.56-138.24-143.36-138.24z",
        "M512 358.4c-76.8 0-143.36 61.44-143.36 138.24s66.56 138.24 143.36 138.24 143.36-61.44 143.36-138.24c0-76.8-66.56-138.24-143.36-138.24z"
      ],
      "tags": [
        "dropdown-icon"
      ],
      "defaultCode": 59742,
      "grid": 14
    },
    {
      "paths": [
        "M51.2 885.76h957.44v138.24h-957.44v-138.24z",
        "M358.4 599.040h343.040l61.44 148.48h143.36l-322.56-747.52h-102.4l-327.68 752.64h143.36l61.44-153.6zM527.36 138.24l128 343.040h-250.88l122.88-343.040z"
      ],
      "tags": [
        "heading"
      ],
      "defaultCode": 59648,
      "grid": 14
    },
    {
      "paths": [
        "M512 256c-143.36 0-256 112.64-256 256s112.64 256 256 256 256-112.64 256-256-112.64-256-256-256z",
        "M512 0c-281.6 0-512 230.4-512 512s230.4 512 512 512 512-230.4 512-512-230.4-512-512-512zM512 921.6c-225.28 0-409.6-184.32-409.6-409.6s184.32-409.6 409.6-409.6 409.6 184.32 409.6 409.6-184.32 409.6-409.6 409.6z"
      ],
      "tags": [
        "radio"
      ],
      "defaultCode": 59649,
      "grid": 14
    },
    {
      "paths": [
        "M261.12 865.28l-179.2-184.32-81.92 81.92 261.12 261.12 261.12-261.12-76.8-81.92z",
        "M261.12 158.72l184.32 184.32 76.8-81.92-261.12-261.12-261.12 261.12 81.92 81.92z"
      ],
      "width": 563,
      "attrs": [
        {
          "fill": "rgb(127, 143, 164)"
        },
        {
          "fill": "rgb(127, 143, 164)"
        }
      ],
      "colorPermutations": {
        "11271431641179951651201315512552552551": [
          {
            "f": 3
          },
          {
            "f": 3
          }
        ],
        "11271431641201315512502012312552552551": [
          {
            "f": 3
          },
          {
            "f": 3
          }
        ]
      },
      "tags": [
        "select-field"
      ],
      "defaultCode": 59650,
      "grid": 14
    },
    {
      "paths": [
        "M1024 578.56v-133.12l-138.24-35.84c-10.24-30.72-20.48-61.44-35.84-87.040l71.68-122.88-97.28-97.28-122.88 71.68c-25.6-15.36-56.32-30.72-87.040-35.84l-35.84-138.24h-133.12l-35.84 138.24c-30.72 5.12-61.44 20.48-92.16 35.84l-117.76-71.68-97.28 97.28 71.68 122.88c-15.36 25.6-30.72 56.32-35.84 87.040l-138.24 35.84v133.12l138.24 35.84c10.24 30.72 20.48 61.44 35.84 87.040l-71.68 122.88 97.28 97.28 122.88-71.68c25.6 15.36 56.32 30.72 87.040 35.84l35.84 138.24h133.12l35.84-138.24c30.72-10.24 61.44-20.48 87.040-35.84l122.88 71.68 97.28-97.28-71.68-122.88c15.36-25.6 30.72-56.32 35.84-87.040l138.24-35.84zM819.2 552.96l-5.12 25.6c-10.24 35.84-20.48 71.68-46.080 107.52l-15.36 20.48 61.44 107.52 0 5.12-107.52-61.44-20.48 15.36c-30.72 20.48-66.56 35.84-107.52 46.080h-25.6l-30.72 122.88h-15.36l-35.84-122.88-25.6-5.12c-35.84-10.24-71.68-20.48-107.52-46.080l-20.48-15.36-107.52 66.56-5.12-5.12 61.44-107.52-15.36-20.48c-20.48-30.72-35.84-66.56-46.080-107.52v-25.6l-122.88-30.72v-15.36l122.88-35.84 5.12-25.6c5.12-35.84 20.48-71.68 40.96-102.4l15.36-20.48-61.44-112.64 5.12-5.12 107.52 61.44 20.48-15.36c35.84-20.48 71.68-35.84 112.64-40.96l20.48-5.12 30.72-122.88h10.24l40.96 122.88 25.6 5.12c35.84 10.24 71.68 20.48 107.52 46.080l20.48 15.36 107.52-66.56 5.12 5.12-61.44 107.52 15.36 20.48c20.48 30.72 35.84 66.56 46.080 107.52v25.6l122.88 30.72v10.24l-122.88 40.96z",
        "M512 281.6c-128 0-230.4 102.4-230.4 230.4s102.4 230.4 230.4 230.4c128 0 230.4-102.4 230.4-230.4s-102.4-230.4-230.4-230.4zM512 665.6c-81.92 0-153.6-66.56-153.6-153.6 0-81.92 66.56-153.6 153.6-153.6 81.92 0 153.6 66.56 153.6 153.6 0 81.92-71.68 153.6-153.6 153.6z"
      ],
      "tags": [
        "settings"
      ],
      "defaultCode": 59651,
      "grid": 14
    },
    {
      "paths": [
        "M512 0l-358.4 409.6h716.8z",
        "M512 1024l358.4-409.6h-716.8z"
      ],
      "tags": [
        "table-sort"
      ],
      "defaultCode": 59652,
      "grid": 14
    },
    {
      "paths": [
        "M460.8 460.8h81.92v81.92h-81.92v-81.92z",
        "M317.44 547.84h81.92v-261.12h107.52v-81.92h-302.080v81.92h112.64z",
        "M896 0h-768c-71.68 0-128 56.32-128 128v768c0 71.68 56.32 128 128 128h768c71.68 0 128-56.32 128-128v-768c0-71.68-56.32-128-128-128zM896 896h-768v-768h768v768z"
      ],
      "tags": [
        "text-area"
      ],
      "defaultCode": 59653,
      "grid": 14
    },
    {
      "paths": [
        "M465.92 368.64h-307.2v76.8h117.76v261.12h76.8v-261.12h112.64z",
        "M435.2 629.76h81.92v81.92h-81.92v-81.92z",
        "M752.64 629.76h81.92v81.92h-81.92v-81.92z",
        "M906.24 204.8h-788.48c-61.44 0-117.76 56.32-117.76 117.76v424.96c0 66.56 56.32 122.88 117.76 122.88h783.36c66.56 0 117.76-56.32 117.76-117.76v-430.080c5.12-61.44-51.2-117.76-112.64-117.76zM942.080 747.52c0 20.48-20.48 40.96-40.96 40.96h-783.36c-20.48 0-40.96-20.48-40.96-40.96v-424.96c0-20.48 20.48-40.96 40.96-40.96h783.36c20.48 0 40.96 20.48 40.96 40.96v424.96z",
        "M593.92 629.76h81.92v81.92h-81.92v-81.92z"
      ],
      "tags": [
        "text-field"
      ],
      "defaultCode": 59654,
      "grid": 14
    },
    {
      "paths": [
        "M983.040 40.96c-51.2-51.2-138.24-51.2-194.56 0l-35.84 35.84c-20.48-20.48-51.2-20.48-71.68 0s-20.48 51.2 0 71.68l10.24 10.24-537.6 537.6c-10.24 10.24-15.36 25.6-20.48 40.96v5.12l0 128c0 5.12 0 10.24 5.12 15.36s10.24 5.12 15.36 5.12c0 0 0 0 0 0l66.56-5.12h61.44c20.48 0 40.96-10.24 56.32-25.6l527.36-527.36 10.24 10.24c10.24 10.24 20.48 15.36 35.84 15.36s25.6-5.12 35.84-15.36c20.48-20.48 20.48-51.2 0-71.68l35.84-35.84c51.2-56.32 51.2-143.36 0-194.56zM599.040 501.76l-184.32 35.84 302.080-307.2 76.8 76.8-194.56 194.56z",
        "M286.72 977.92c0 25.449-64.184 46.080-143.36 46.080s-143.36-20.631-143.36-46.080c0-25.449 64.184-46.080 143.36-46.080s143.36 20.631 143.36 46.080z"
      ],
      "attrs": [
        {
          "fill": "rgb(127, 143, 164)"
        },
        {
          "fill": "rgb(127, 143, 164)"
        }
      ],
      "colorPermutations": {
        "11271431641179951651201315512552552551": [
          {
            "f": 3
          },
          {
            "f": 3
          }
        ],
        "11271431641201315512502012312552552551": [
          {
            "f": 3
          },
          {
            "f": 3
          }
        ]
      },
      "tags": [
        "color-picker"
      ],
      "defaultCode": 59655,
      "grid": 14
    },
    {
      "paths": [
        "M911.36 911.36h-798.72v-798.72h568.32v-112.64h-568.32c-61.44 0-112.64 51.2-112.64 112.64v798.72c0 61.44 51.2 112.64 112.64 112.64h798.72c61.44 0 112.64-51.2 112.64-112.64v-455.68h-112.64v455.68z",
        "M276.48 404.48l-76.8 76.8 256 256 568.32-568.32-81.92-76.8-486.4 486.4z"
      ],
      "attrs": [
        {
          "fill": "rgb(127, 143, 164)"
        },
        {
          "fill": "rgb(127, 143, 164)"
        }
      ],
      "colorPermutations": {
        "11271431641179951651201315512552552551": [
          {
            "f": 3
          },
          {
            "f": 3
          }
        ],
        "11271431641201315512502012312552552551": [
          {
            "f": 3
          },
          {
            "f": 3
          }
        ]
      },
      "tags": [
        "checkbox"
      ],
      "defaultCode": 59656,
      "grid": 14
    },
    {
      "paths": [
        "M514.048 26.624c-270.336 0-489.472 219.136-489.472 487.424 0 270.336 219.136 489.472 489.472 489.472s489.472-219.136 489.472-489.472c-2.048-268.288-221.184-487.424-489.472-487.424zM733.184 690.176l-45.056 45.056-176.128-176.128-176.128 176.128-45.056-45.056 176.128-176.128-176.128-176.128 45.056-45.056 176.128 176.128 176.128-176.128 45.056 45.056-176.128 176.128 176.128 176.128z"
      ],
      "tags": [
        "cross-with-circle"
      ],
      "defaultCode": 59691,
      "grid": 14
    },
    {
      "paths": [
        "M514.048 28.672c-268.288 0-487.424 219.136-487.424 487.424 0 270.336 219.136 489.472 489.472 489.472 268.288 0 487.424-219.136 487.424-489.472 0-268.288-219.136-487.424-489.472-487.424zM409.6 753.664l-184.32-184.32 45.056-47.104 139.264 139.264 348.16-350.208 47.104 47.104-395.264 395.264z"
      ],
      "tags": [
        "tick-with-circle"
      ],
      "defaultCode": 59720,
      "grid": 14
    },
    {
      "paths": [
        "M584.282 319.247h156.612l-216.847-216.847v156.612c-6.024 24.094 24.094 60.235 60.235 60.235zM578.259 240.941l18.071 18.071h-12.047c0 0-6.024-6.024-6.024-6.024v-12.047z",
        "M536.094 12.047h-385.506c-78.306 0-144.565 66.259-144.565 144.565v728.847c0 78.306 66.259 144.565 144.565 144.565h524.047c78.306 0 144.565-66.259 144.565-144.565v-584.282l-283.106-289.129zM764.988 885.459c0 48.188-42.165 84.329-84.329 84.329h-524.047c-48.188 0-84.329-42.165-84.329-84.329v-728.847c0-48.188 42.165-84.329 84.329-84.329h361.412l246.965 246.965v566.212z"
      ],
      "width": 825,
      "tags": [
        "documentation"
      ],
      "defaultCode": 59738,
      "grid": 14
    },
    {
      "paths": [
        "M810 554h-256v256h-84v-256h-256v-84h256v-256h84v256h256v84z"
      ],
      "tags": [
        ""
      ],
      "defaultCode": 59657,
      "grid": 24
    },
    {
      "paths": [
        "M726 554v-84h-172v-172h-84v172h-172v84h172v172h84v-172h172zM512 86q176 0 301 125t125 301-125 301-301 125-301-125-125-301 125-301 301-125z"
      ],
      "tags": [],
      "defaultCode": 59658,
      "grid": 24
    },
    {
      "paths": [
        "M810 274l-238 238 238 238-60 60-238-238-238 238-60-60 238-238-238-238 60-60 238 238 238-238z"
      ],
      "tags": [
        ""
      ],
      "defaultCode": 59659,
      "grid": 24
    },
    {
      "paths": [
        "M810 554h-596v-84h596v84z"
      ],
      "tags": [],
      "defaultCode": 59660,
      "grid": 24
    },
    {
      "paths": [
        "M726 554v-84h-428v84h428zM512 86q176 0 301 125t125 301-125 301-301 125-301-125-125-301 125-301 301-125z"
      ],
      "tags": [],
      "defaultCode": 59661,
      "grid": 24
    },
    {
      "paths": [
        "M512 342l256 256-60 60-196-196-196 196-60-60z"
      ],
      "tags": [],
      "defaultCode": 59662,
      "grid": 24
    },
    {
      "paths": [
        "M708 366l60 60-256 256-256-256 60-60 196 196z"
      ],
      "tags": [],
      "defaultCode": 59663,
      "grid": 24
    },
    {
      "paths": [
        "M498 166l-346 346 346 346-76 76-422-422 422-422z"
      ],
      "tags": [],
      "defaultCode": 59664,
      "grid": 24
    },
    {
      "paths": [
        "M250 176l92-90 426 426-426 426-92-90 338-336z"
      ],
      "tags": [],
      "defaultCode": 59665,
      "grid": 24
    },
    {
      "paths": [
        "M554 554v-256h-84v256h84zM554 726v-86h-84v86h84zM512 86q176 0 301 125t125 301-125 301-301 125-301-125-125-301 125-301 301-125z"
      ],
      "tags": [],
      "defaultCode": 59666,
      "grid": 24
    },
    {
      "paths": [
        "M512 854q140 0 241-101t101-241-101-241-241-101-241 101-101 241 101 241 241 101zM512 86q176 0 301 125t125 301-125 301-301 125-301-125-125-301 125-301 301-125zM470 298h84v256h-84v-256zM470 640h84v86h-84v-86z"
      ],
      "tags": [
        ""
      ],
      "defaultCode": 59667,
      "grid": 24
    },
    {
      "paths": [
        "M554 598v-172h-84v172h84zM554 768v-86h-84v86h84zM42 896l470-810 470 810h-940z"
      ],
      "tags": [],
      "defaultCode": 59668,
      "grid": 24
    },
    {
      "paths": [
        "M512 768v-128l170 170-170 172v-128q-140 0-241-101t-101-241q0-100 54-182l62 62q-30 54-30 120 0 106 75 181t181 75zM512 170q140 0 241 101t101 241q0 100-54 182l-62-62q30-54 30-120 0-106-75-181t-181-75v128l-170-170 170-172v128z"
      ],
      "tags": [],
      "defaultCode": 59669,
      "grid": 24
    },
    {
      "paths": [
        "M738 470h72q0 108-75 189t-181 97v140h-84v-140q-106-16-181-97t-75-189h72q0 94 67 155t159 61 159-61 67-155zM512 598q-52 0-90-38t-38-90v-256q0-52 38-90t90-38 90 38 38 90v256q0 52-38 90t-90 38z"
      ],
      "tags": [],
      "defaultCode": 59670,
      "grid": 24
    },
    {
      "paths": [
        "M738 470h72q0 108-75 189t-181 97v140h-84v-140q-106-16-181-97t-75-189h72q0 94 67 155t159 61 159-61 67-155zM460 210v264q0 20 15 35t37 15q20 0 35-14t15-36l2-264q0-22-16-37t-36-15-36 15-16 37zM512 598q-52 0-90-38t-38-90v-256q0-52 38-90t90-38 90 38 38 90v256q0 52-38 90t-90 38z"
      ],
      "tags": [],
      "defaultCode": 59671,
      "grid": 24
    },
    {
      "paths": [
        "M182 128l714 714-54 54-178-178q-44 28-110 38v140h-84v-140q-106-16-181-97t-75-189h72q0 94 67 155t159 61q50 0 98-22l-70-70q-16 4-28 4-52 0-90-38t-38-90v-32l-256-256zM640 476l-256-254v-8q0-52 38-90t90-38 90 38 38 90v262zM810 470q0 74-38 140l-52-54q18-40 18-86h72z"
      ],
      "tags": [],
      "defaultCode": 59672,
      "grid": 24
    },
    {
      "paths": [
        "M512 214q142 0 242 100t100 240q0 142-101 242t-241 100-241-100-101-242h86q0 106 75 181t181 75 181-75 75-181-75-181-181-75v172l-214-214 214-214v172z"
      ],
      "tags": [],
      "defaultCode": 59673,
      "grid": 24
    },
    {
      "paths": [
        "M726 448l170-170v468l-170-170v150q0 18-13 30t-31 12h-512q-18 0-30-12t-12-30v-428q0-18 12-30t30-12h512q18 0 31 12t13 30v150z"
      ],
      "tags": [],
      "defaultCode": 59674,
      "grid": 24
    },
    {
      "paths": [
        "M140 86l756 756-54 54-136-136q-12 8-24 8h-512q-18 0-30-12t-12-30v-428q0-18 12-30t30-12h32l-116-116zM896 278v456l-478-478h264q18 0 31 12t13 30v150z"
      ],
      "tags": [],
      "defaultCode": 59675,
      "grid": 24
    },
    {
      "paths": [
        "M214 384h170l214-214v684l-214-214h-170v-256zM790 512q0 118-108 172v-344q44 22 76 73t32 99z"
      ],
      "tags": [],
      "defaultCode": 59676,
      "grid": 24
    },
    {
      "paths": [
        "M298 384h172l212-214v684l-212-214h-172v-256z"
      ],
      "tags": [],
      "defaultCode": 59677,
      "grid": 24
    },
    {
      "paths": [
        "M512 170v180l-90-90zM182 128l714 714-54 54-88-88q-66 56-156 78v-88q50-14 96-50l-182-182v288l-214-214h-170v-256h202l-202-202zM810 512q0-102-59-180t-153-106v-88q130 28 214 133t84 241q0 94-44 178l-64-66q22-54 22-112zM704 512q0 18-2 26l-104-104v-94q44 22 75 72t31 100z"
      ],
      "tags": [],
      "defaultCode": 59678,
      "grid": 24
    },
    {
      "paths": [
        "M598 138q130 28 214 133t84 241-84 241-214 133v-88q94-28 153-106t59-180-59-180-153-106v-88zM704 512q0 120-106 172v-344q44 22 75 72t31 100zM128 384h170l214-214v684l-214-214h-170v-256z"
      ],
      "tags": [],
      "defaultCode": 59679,
      "grid": 24
    },
    {
      "paths": [
        "M768 342v-86h-512v86h512zM598 598v-86h-342v86h342zM256 384v86h512v-86h-512zM854 86q34 0 59 25t25 59v512q0 34-25 60t-59 26h-598l-170 170v-768q0-34 25-59t59-25h684z"
      ],
      "tags": [],
      "defaultCode": 59680,
      "grid": 24
    },
    {
      "paths": [
        "M762 598q-16-42-16-86t16-86h70l64-84-84-86q-36 28-71 78t-47 92-12 86 12 86 47 92 71 78l84-86-64-84h-70zM598 768v-42q0-58-88-95t-168-37-168 37-88 95v42h512zM342 256q-52 0-90 38t-38 90 38 90 90 38 90-38 38-90-38-90-90-38zM938 128q34 0 60 26t26 60v596q0 34-26 60t-60 26h-852q-34 0-60-26t-26-60v-596q0-34 26-60t60-26h852z"
      ],
      "tags": [],
      "defaultCode": 59681,
      "grid": 24
    },
    {
      "paths": [
        "M512 342l256 256-60 60-196-196-196 196-60-60z"
      ],
      "tags": [],
      "defaultCode": 59682,
      "grid": 24
    },
    {
      "paths": [
        "M708 366l60 60-256 256-256-256 60-60 196 196z"
      ],
      "tags": [],
      "defaultCode": 59683,
      "grid": 24
    },
    {
      "paths": [
        "M498 166l-346 346 346 346-76 76-422-422 422-422z"
      ],
      "tags": [],
      "defaultCode": 59684,
      "grid": 24
    },
    {
      "paths": [
        "M250 176l92-90 426 426-426 426-92-90 338-336z"
      ],
      "tags": [],
      "defaultCode": 59685,
      "grid": 24
    },
    {
      "paths": [
        "M512 736l-264 160 70-300-232-202 306-26 120-282 120 282 306 26-232 202 70 300z"
      ],
      "tags": [],
      "defaultCode": 59686,
      "grid": 24
    },
    {
      "paths": [
        "M512 658l160 96-42-182 142-124-188-16-72-172-72 172-188 16 142 124-42 182zM938 394l-232 202 70 300-264-160-264 160 70-300-232-202 306-26 120-282 120 282z"
      ],
      "tags": [],
      "defaultCode": 59687,
      "grid": 24
    },
    {
      "paths": [
        "M490 42l406 214v86h-810v-86zM682 426h128v300h-128v-300zM86 938v-128h810v128h-810zM426 426h128v300h-128v-300zM170 426h128v300h-128v-300z"
      ],
      "tags": [],
      "defaultCode": 59688,
      "grid": 24
    },
    {
      "paths": [
        "M256 726v42h512v-42q0-58-88-95t-168-37-168 37-88 95zM640 384q0-52-38-90t-90-38-90 38-38 90 38 90 90 38 90-38 38-90zM128 214q0-36 25-61t61-25h596q34 0 60 26t26 60v596q0 34-26 60t-60 26h-596q-36 0-61-25t-25-61v-596z"
      ],
      "tags": [],
      "defaultCode": 59689,
      "grid": 24
    },
    {
      "paths": [
        "M512 820q68 0 143-40t113-98q-2-56-90-94t-166-38-166 37-90 95q38 58 113 98t143 40zM512 214q-52 0-90 38t-38 90 38 90 90 38 90-38 38-90-38-90-90-38zM512 86q176 0 301 125t125 301-125 301-301 125-301-125-125-301 125-301 301-125z"
      ],
      "tags": [],
      "defaultCode": 59693,
      "grid": 24
    },
    {
      "paths": [
        "M768 810v-60q0-58-88-95t-168-37-168 37-88 95v60h512zM512 298q-52 0-90 38t-38 90 38 90 90 38 90-38 38-90-38-90-90-38zM512 128q-18 0-30 12t-12 30 12 31 30 13 30-13 12-31-12-30-30-12zM810 128q34 0 60 26t26 60v596q0 34-26 60t-60 26h-596q-34 0-60-26t-26-60v-596q0-34 26-60t60-26h178q14-38 46-62t74-24 74 24 46 62h178z"
      ],
      "tags": [],
      "defaultCode": 59694,
      "grid": 24
    },
    {
      "paths": [
        "M256 512h128l-170 170-172-170h128q0-140 101-241t241-101q100 0 182 54l-62 62q-54-30-120-30-106 0-181 75t-75 181zM810 342l172 170h-128q0 140-101 241t-241 101q-100 0-182-54l62-62q56 30 120 30 106 0 181-75t75-181h-128z"
      ],
      "tags": [],
      "defaultCode": 59695,
      "grid": 24
    },
    {
      "paths": [
        "M426 726l384-384-60-62-324 324-152-152-60 60zM512 86q176 0 301 125t125 301-125 301-301 125-301-125-125-301 125-301 301-125z"
      ],
      "tags": [],
      "defaultCode": 59696,
      "grid": 24
    },
    {
      "paths": [
        "M384 692l452-454 60 60-512 512-238-238 58-60z"
      ],
      "tags": [
        ""
      ],
      "defaultCode": 59697,
      "grid": 24
    },
    {
      "paths": [
        "M768 854v-428h-512v428h512zM768 342q34 0 60 25t26 59v428q0 34-26 59t-60 25h-512q-34 0-60-25t-26-59v-428q0-34 26-59t60-25h388v-86q0-54-39-93t-93-39-93 39-39 93h-82q0-88 63-151t151-63 151 63 63 151v86h42zM512 726q-34 0-60-26t-26-60 26-60 60-26 60 26 26 60-26 60-60 26z"
      ],
      "tags": [],
      "defaultCode": 59698,
      "grid": 24
    },
    {
      "paths": [
        "M768 854v-428h-512v428h512zM380 256v86h264v-86q0-54-39-93t-93-39-93 39-39 93zM768 342q34 0 60 25t26 59v428q0 34-26 59t-60 25h-512q-34 0-60-25t-26-59v-428q0-34 26-59t60-25h42v-86q0-88 63-151t151-63 151 63 63 151v86h42zM512 726q-34 0-60-26t-26-60 26-60 60-26 60 26 26 60-26 60-60 26z"
      ],
      "tags": [],
      "defaultCode": 59699,
      "grid": 24
    },
    {
      "paths": [
        "M537.6 727.086h76.8v225.371h-76.8v-225.371z",
        "M870.4 952.229h-30.629v-225.143h30.629c20.571 0 35.886-15.314 35.886-35.886s-15.314-35.886-35.886-35.886h-76.8v-112.686h25.6c20.571 0 35.886-15.314 35.886-35.886s-15.314-35.886-35.886-35.886h-30.629v-46.171h30.629c20.571 0 35.886-15.314 35.886-35.886s-15.314-35.886-35.886-35.886h-30.629c-15.314-133.029-117.714-235.429-250.971-250.971v-71.771c0-20.571-15.314-35.886-35.886-35.886s-35.886 15.314-35.886 35.886v71.771c-133.029 15.314-235.429 117.714-250.971 250.971h-30.629c-20.571 0-35.886 15.314-35.886 35.886s15.314 35.886 35.886 35.886h35.886v46.4h-35.886c-20.571 0-35.886 15.314-35.886 35.886s15.314 35.886 35.886 35.886h25.6v112.686h-76.8c-20.571 0-35.886 15.314-35.886 35.886s15.314 35.886 35.886 35.886h30.629v225.371h-30.629c-20.571 0-35.886 15.314-35.886 35.886s15.314 35.886 35.886 35.886h732.114c20.571 0 35.886-15.314 35.886-35.886 0-20.8-15.314-36.343-30.629-36.343zM501.714 173.943c107.429 0 199.771 76.8 215.086 184.229h-430.171c20.571-102.171 107.657-184.229 215.086-184.229zM276.571 429.943h465.829v46.171h-465.829v-46.171zM609.371 547.886v112.686h-56.229v-112.686h56.229zM465.829 547.886v112.686h-56.229v-112.686h56.229zM343.086 547.886v112.686h-56.457v-112.686h56.457zM353.371 952.229h-76.8v-225.143h76.8v225.143zM476.114 952.229h-76.8v-225.143h76.8v225.143zM614.4 952.229h-76.8v-225.143h76.8v225.143zM675.886 547.886h56.229v112.686h-56.229v-112.686zM762.971 952.229h-76.8v-225.143h76.8v225.143z"
      ],
      "tags": [
        "tomb"
      ],
      "defaultCode": 59690,
      "grid": 14
    },
    {
      "paths": [
        "M225.835 414.165l256 256c16.683 16.683 43.691 16.683 60.331 0l256-256c16.683-16.683 16.683-43.691 0-60.331s-43.691-16.683-60.331 0l-225.835 225.835-225.835-225.835c-16.683-16.683-43.691-16.683-60.331 0s-16.683 43.691 0 60.331z"
      ],
      "tags": [
        "chevron-down"
      ],
      "defaultCode": 59700,
      "grid": 24
    },
    {
      "paths": [
        "M733.714 419.429c0-9.714-3.429-19.429-10.286-26.286l-52-51.429c-6.857-6.857-16-10.857-25.714-10.857s-18.857 4-25.714 10.857l-233.143 232.571-129.143-129.143c-6.857-6.857-16-10.857-25.714-10.857s-18.857 4-25.714 10.857l-52 51.429c-6.857 6.857-10.286 16.571-10.286 26.286s3.429 18.857 10.286 25.714l206.857 206.857c6.857 6.857 16.571 10.857 25.714 10.857 9.714 0 19.429-4 26.286-10.857l310.286-310.286c6.857-6.857 10.286-16 10.286-25.714zM877.714 512c0 242.286-196.571 438.857-438.857 438.857s-438.857-196.571-438.857-438.857 196.571-438.857 438.857-438.857 438.857 196.571 438.857 438.857z"
      ],
      "width": 878,
      "tags": [
        "check-circle"
      ],
      "defaultCode": 59692,
      "grid": 14
    },
    {
      "paths": [
        "M496 112c-229.76 0-416 186.24-416 416s186.24 416 416 416c229.76 0 416-186.24 416-416s-186.24-416-416-416zM704 540c0 17.696-14.336 32-32 32h-352c-17.696 0-32-14.304-32-32v-32c0-17.664 14.304-32 32-32h352c17.664 0 32 14.336 32 32v32z"
      ],
      "tags": [
        "minus",
        "remove",
        "delete"
      ],
      "defaultCode": 59741,
      "grid": 32
    },
    {
      "paths": [
        "M512 170.667c-188.544 0-341.333 152.832-341.333 341.333s152.789 341.333 341.333 341.333 341.333-152.832 341.333-341.333-152.789-341.333-341.333-341.333zM670.165 609.835c16.683 16.683 16.683 43.648 0 60.331-8.32 8.32-19.243 12.501-30.165 12.501s-21.845-4.181-30.165-12.501l-97.835-97.835-97.835 97.835c-8.32 8.32-19.243 12.501-30.165 12.501s-21.845-4.181-30.165-12.501c-16.683-16.683-16.683-43.648 0-60.331l97.835-97.835-97.835-97.835c-16.683-16.683-16.683-43.648 0-60.331s43.648-16.683 60.331 0l97.835 97.835 97.835-97.835c16.683-16.683 43.648-16.683 60.331 0s16.683 43.648 0 60.331l-97.835 97.835 97.835 97.835z"
      ],
      "tags": [
        "delete"
      ],
      "defaultCode": 59701,
      "grid": 24
    },
    {
      "paths": [
        "M948.218 68.696l36.848 73.163-82.308 41.454-36.848-73.163 82.308-41.454z",
        "M0 302.080h92.16v81.92h-92.16v-81.92z",
        "M73.556 70.931l82.308 41.454-36.848 73.163-82.308-41.454 36.848-73.163z",
        "M71.486 615.131l-36.848-73.163 86.881-43.757 36.848 73.163-86.881 43.757z",
        "M931.84 302.080h92.16v81.92h-92.16v-81.92z",
        "M950.301 612.159l-86.881-43.757 36.848-73.163 86.881 43.757-36.848 73.163z",
        "M512 0c-189.44 0-343.040 153.6-343.040 343.040v0 0c0 138.24 56.32 215.040 107.52 281.6v0c40.96 56.32 76.8 102.4 76.8 174.080v107.52c0 61.44 56.32 117.76 122.88 117.76h76.8c66.56 0 117.76-56.32 117.76-117.76v-107.52c0-71.68 35.84-117.76 76.8-174.080v0c51.2-66.56 107.52-143.36 107.52-281.6v0 0c-0-189.44-153.6-343.040-343.040-343.040zM588.8 906.24c0 20.48-20.48 40.96-40.96 40.96h-71.68c-20.48 0-40.96-20.48-40.96-40.96v-76.8h158.72v76.8zM680.96 578.56v0c-35.84 51.2-76.8 97.28-87.040 168.96h-163.84c-15.36-71.68-51.2-122.88-87.040-168.96v0c-51.2-66.56-92.16-122.88-97.28-235.52 0-143.36 117.76-261.12 266.24-261.12 143.36 0 261.12 117.76 266.24 261.12-5.12 112.64-46.080 168.96-97.28 235.52z"
      ],
      "tags": [
        "Insights"
      ],
      "defaultCode": 59702,
      "grid": 24
    },
    {
      "paths": [
        "M639.334 726.065l-82.194-82.193-155.851 155.857v-799.729h-116.236v803.279l-159.409-159.406-82.188 82.193 297.94 297.935 297.938-297.935z"
      ],
      "width": 683,
      "tags": [
        "low-risk"
      ],
      "defaultCode": 59703,
      "grid": 24
    },
    {
      "paths": [
        "M298.667 0l-298.667 298.667 85.333 85.333 153.6-162.133v802.133h119.467v-802.133l153.6 162.133 85.333-85.333z"
      ],
      "width": 597,
      "tags": [
        "high-risk"
      ],
      "defaultCode": 59704,
      "grid": 24
    },
    {
      "paths": [
        "M582.459 469.725l-460.33-460.33c-18.789-18.789-46.972-18.789-65.761 0l-46.972 37.578c-18.789 18.789-18.789 46.972 0 65.761l394.569 394.569-394.569 394.569c-18.789 18.789-18.789 46.972 0 65.761l37.578 37.578c18.789 18.789 46.972 18.789 65.761 0l460.33-460.33c28.183-18.789 28.183-56.367 9.394-75.156z"
      ],
      "width": 601,
      "tags": [
        "caret-right"
      ],
      "defaultCode": 59705,
      "grid": 24
    },
    {
      "paths": [
        "M993.28 153.6l-122.88-117.76c-25.6-25.6-71.68-25.6-102.4 0l-650.24 650.24c-20.48 20.48-35.84 46.080-46.080 76.8l-61.44 250.88 250.88-56.32c25.6-10.24 56.32-25.6 76.8-46.080l655.36-660.48c15.36-15.36 20.48-30.72 20.48-51.2-5.12-15.36-5.12-35.84-20.48-46.080zM117.76 901.12l25.6-102.4 81.92 81.92-107.52 20.48zM281.6 865.28l-138.24-133.12 593.92-588.8 138.24 138.24-593.92 583.68zM885.76 245.76l-107.52-107.52 46.080-46.080 107.52 107.52-46.080 46.080z"
      ],
      "tags": [
        "edit"
      ],
      "defaultCode": 59706,
      "grid": 24
    },
    {
      "paths": [
        "M725.333 204.8l-85.333 85.333 162.133 153.6h-580.267l162.133-153.6-85.333-85.333-298.667 298.667 298.667 298.667 85.333-85.333-162.133-153.6h580.267l-162.133 153.6 85.333 85.333 298.667-298.667z"
      ],
      "tags": [
        "medium-risk"
      ],
      "defaultCode": 59707,
      "grid": 24
    },
    {
      "paths": [
        "M552.96 445.44h81.92v419.84h-81.92v-419.84z",
        "M742.4 143.36h-122.88v-25.6c0-66.56-56.32-117.76-117.76-117.76h-138.24c-66.56 0-122.88 56.32-122.88 117.76v25.6h-122.88c-61.44 0-117.76 56.32-117.76 122.88v102.4h81.92v537.6c0 66.56 56.32 117.76 117.76 117.76h465.92c66.56 0 117.76-56.32 117.76-117.76v-542.72h81.92v-102.4c-0-61.44-56.32-117.76-122.88-117.76zM322.56 117.76c0-20.48 20.48-40.96 40.96-40.96h138.24c20.48 0 40.96 20.48 40.96 40.96v25.6h-220.16v-25.6zM706.56 906.24c0 20.48-20.48 40.96-40.96 40.96h-465.92c-20.48 0-40.96-20.48-40.96-40.96v-542.72h542.72v542.72zM783.36 286.72h-701.44v-20.48c0-20.48 20.48-40.96 40.96-40.96h624.64c20.48 0 40.96 20.48 40.96 40.96v20.48z",
        "M394.24 445.44h81.92v419.84h-81.92v-419.84z",
        "M230.4 445.44h81.92v419.84h-81.92v-419.84z"
      ],
      "width": 865,
      "tags": [
        "trash"
      ],
      "defaultCode": 59708,
      "grid": 24
    },
    {
      "paths": [
        "M808.96 296.96c0-163.84-133.12-296.96-296.96-296.96s-296.96 133.12-296.96 296.96c0 102.4 51.2 189.44 128 245.76-71.68 20.48-138.24 61.44-194.56 117.76-97.28 97.28-148.48 225.28-148.48 363.52h81.92c0-235.52 194.56-430.080 430.080-430.080 163.84-5.12 296.96-133.12 296.96-296.96zM512 512c-117.76 0-215.040-97.28-215.040-215.040s97.28-215.040 215.040-215.040c117.76 0 215.040 97.28 215.040 215.040s-97.28 215.040-215.040 215.040z",
        "M855.040 773.12v-163.84h-76.8v163.84h-168.96v81.92h168.96v168.96h76.8v-168.96h168.96v-81.92z"
      ],
      "tags": [
        "Add-Customer"
      ],
      "defaultCode": 59709,
      "grid": 24
    },
    {
      "paths": [
        "M275.2 454.4h44.8c19.2 0 32-12.8 32-32 6.4-25.6-12.8-38.4-32-38.4h-44.8c-19.2 0-32 12.8-32 32s12.8 38.4 32 38.4z",
        "M460.8 691.2c-12.8-12.8-38.4-12.8-51.2 0l-38.4 38.4-38.4-38.4c-12.8-12.8-38.4-12.8-51.2 0s-12.8 38.4 0 51.2l38.4 38.4-38.4 38.4c-12.8 12.8-12.8 38.4 0 51.2s38.4 12.8 51.2 0l38.4-38.4 38.4 38.4c12.8 12.8 38.4 12.8 51.2 0s12.8-38.4 0-51.2l-38.4-38.4 38.4-38.4c12.8-12.8 12.8-38.4 0-51.2z",
        "M275.2 313.6h44.8c19.2 0 32-12.8 32-32 6.4-25.6-12.8-38.4-32-38.4h-44.8c-19.2 0-32 12.8-32 32s12.8 38.4 32 38.4z",
        "M320 588.8c19.2 0 32-12.8 32-32s-12.8-32-32-32h-44.8c-19.2-6.4-32 12.8-32 32s12.8 32 32 32h44.8z",
        "M876.8 0h-742.4c-19.2 0-32 12.8-32 32v953.6c0 19.2 12.8 32 32 32h742.4c19.2 0 32-12.8 32-32v-953.6c6.4-19.2-12.8-32-32-32zM844.8 467.2v492.8h-672v-889.6h115.2v32c0 19.2 12.8 32 32 32h371.2c19.2 0 32-12.8 32-32v-32h115.2v396.8z",
        "M422.4 275.2c0 19.2 12.8 32 32 32h275.2c19.2 0 32-12.8 32-32s-12.8-32-32-32h-268.8c-19.2 0-38.4 12.8-38.4 32z",
        "M736 518.4h-275.2c-19.2 0-32 12.8-32 32s12.8 32 32 32h275.2c19.2 0 32-12.8 32-32 6.4-12.8-12.8-32-32-32z",
        "M736 384h-275.2c-19.2 0-38.4 12.8-38.4 32s12.8 32 32 32h275.2c19.2 0 32-12.8 32-32 12.8-19.2-6.4-32-25.6-32z"
      ],
      "tags": [
        "blackList"
      ],
      "defaultCode": 59710,
      "grid": 24
    },
    {
      "paths": [
        "M614.4 742.4h70.4v70.4h-70.4v-70.4z",
        "M480 467.2h70.4v70.4h-70.4v-70.4z",
        "M480 608h70.4v70.4h-70.4v-70.4z",
        "M614.4 608h70.4v70.4h-70.4v-70.4z",
        "M755.2 467.2h70.4v70.4h-70.4v-70.4z",
        "M614.4 467.2h70.4v70.4h-70.4v-70.4z",
        "M755.2 608h70.4v70.4h-70.4v-70.4z",
        "M480 742.4h70.4v70.4h-70.4v-70.4z",
        "M339.2 467.2h70.4v70.4h-70.4v-70.4z",
        "M198.4 742.4h70.4v70.4h-70.4v-70.4z",
        "M851.2 140.8h-38.4v-70.4h-70.4v70.4h-460.8v-70.4h-64v70.4h-44.8c-57.6 0-102.4 44.8-102.4 102.4v608c0 57.6 44.8 102.4 102.4 102.4h678.4c57.6 0 102.4-44.8 102.4-102.4v-608c0-57.6-44.8-102.4-102.4-102.4zM883.2 851.2c0 19.2-12.8 32-32 32h-678.4c-19.2 0-32-12.8-32-32v-454.4h748.8v454.4z",
        "M198.4 608h70.4v70.4h-70.4v-70.4z",
        "M339.2 608h70.4v70.4h-70.4v-70.4z",
        "M198.4 467.2h70.4v70.4h-70.4v-70.4z",
        "M339.2 742.4h70.4v70.4h-70.4v-70.4z"
      ],
      "tags": [
        "Calendar"
      ],
      "defaultCode": 59711,
      "grid": 24
    },
    {
      "paths": [
        "M20.48 61.44c-40.96 40.96-40.96 102.4 0 143.36l778.24 778.24c0 0 20.48 20.48 40.96 20.48 40.96 20.48 81.92 0 102.4-20.48l40.96-40.96c0 0 0 0 0 0l737.28-737.28c40.96-40.96 40.96-102.4 0-143.36l-20.48-40.96c-40.96-40.96-102.4-40.96-143.36 0l-675.84 675.84-675.84-675.84c-40.96-20.48-102.4-20.48-143.36 0l-40.96 40.96z"
      ],
      "width": 1761,
      "tags": [
        "caret-down"
      ],
      "defaultCode": 59712,
      "grid": 24
    },
    {
      "paths": [
        "M544.881 9.394c-18.789-18.789-56.367-18.789-75.156 0l-460.33 460.33c-18.789 18.789-18.789 46.972 0 65.761l460.33 460.33c18.789 18.789 46.972 18.789 65.761 0l37.578-37.578c18.789-18.789 18.789-46.972 0-65.761l-385.174-385.174 394.569-394.569c18.789-18.789 18.789-46.972-0-65.761l-37.578-37.578z"
      ],
      "width": 601,
      "tags": [
        "caret-left"
      ],
      "defaultCode": 59713,
      "grid": 24
    },
    {
      "paths": [
        "M570.709 638.976c0-38.912-29.355-68.267-68.267-68.267s-68.267 29.355-68.267 68.267c0 24.576 14.336 43.691 34.133 58.709v82.603c0 24.576 19.797 38.912 38.912 38.912 24.576 0 38.912-19.797 38.912-38.912v-82.603c19.797-10.24 34.133-34.816 24.576-58.709z",
        "M785.067 380.245h-73.045v-155.648c0-107.179-92.843-200.021-204.8-200.021s-204.8 88.064-204.8 200.021v156.331h-68.267c-58.709 0-111.957 48.469-111.957 111.957v389.803c0 58.709 48.469 111.957 111.957 111.957h550.912c58.709 0 111.957-48.469 111.957-111.957v-390.485c0-58.027-48.469-111.957-111.957-111.957zM380.245 229.376c0-68.267 58.709-126.976 131.755-126.976 68.267 0 126.976 53.931 126.976 122.197v161.109h-258.731v-156.331zM823.979 887.467c0 19.797-19.797 38.912-38.912 38.912h-550.912c-19.797 0-38.912-19.797-38.912-38.912v-389.803c0-7.509 2.731-14.336 7.509-21.163 7.509-10.24 19.797-18.432 32.085-18.432h550.229c19.797 0 38.912 19.797 38.912 38.912v390.485z"
      ],
      "tags": [
        "change-password"
      ],
      "defaultCode": 59714,
      "grid": 24
    },
    {
      "paths": [
        "M1301.695 0l-763.661 867.797-468.61-433.898-69.424 69.424 538.034 520.678 850.441-954.576z"
      ],
      "width": 1388,
      "tags": [
        "Check"
      ],
      "defaultCode": 59715,
      "grid": 24
    },
    {
      "paths": [
        "M970.419 363.163c-5.953-202.419-172.651-363.163-381.023-363.163-89.302 0-178.605 35.721-250.047 95.256-59.535 53.581-101.209 125.023-113.116 208.372-59.535 11.907-113.116 41.674-148.837 83.349-47.628 53.581-77.395 119.070-77.395 190.512s23.814 136.93 71.442 190.512c47.628 53.581 113.116 83.349 178.605 95.256v0h5.953v-89.302c-95.256-11.907-166.698-95.256-166.698-190.512 0-101.209 77.395-184.558 172.651-190.512l35.721-5.953 5.953-35.721c11.907-142.884 136.93-256 279.814-256 154.791 0 285.767 125.023 285.767 285.767v83.349h65.488c83.349 0 154.791 71.442 154.791 154.791s-71.442 154.791-154.791 154.791h-11.907v95.256h11.907c136.93 0 250.047-113.116 250.047-250.047 5.953-136.93-89.302-238.14-214.326-256z",
        "M642.977 851.349v-464.372h-95.256v464.372l-136.93-142.884-65.488 65.488 250.047 250.047 250.047-250.047-65.488-65.488z"
      ],
      "width": 1191,
      "tags": [
        "cloud"
      ],
      "defaultCode": 59716,
      "grid": 24
    },
    {
      "paths": [
        "M609.28 496.64c0-15.36 0-30.72-5.12-46.080 15.36 0 25.6 5.12 40.96 5.12 97.28 0 184.32 46.080 240.64 117.76l56.32-61.44c-40.96-46.080-92.16-87.040-153.6-112.64 51.2-40.96 81.92-102.4 81.92-174.080-5.12-122.88-102.4-225.28-230.4-225.28s-225.28 102.4-225.28 225.28c0 15.36 0 30.72 5.12 46.080-10.24-0-25.6-0-35.84-0-122.88 0-225.28 102.4-225.28 225.28 0 71.68 30.72 133.12 81.92 174.080-143.36 56.32-240.64 194.56-240.64 353.28h81.92c0-168.96 133.12-302.080 302.080-302.080 122.88 0 225.28-102.4 225.28-225.28zM384 640c-81.92 0-143.36-66.56-143.36-143.36s66.56-143.36 143.36-143.36c81.92 0 143.36 66.56 143.36 143.36s-66.56 143.36-143.36 143.36zM496.64 225.28c0-81.92 66.56-143.36 143.36-143.36s143.36 66.56 143.36 143.36c0 81.92-66.56 143.36-143.36 143.36s-143.36-61.44-143.36-143.36z",
        "M962.56 599.040l-276.48 312.32-158.72-153.6-51.2 61.44 215.040 204.8 332.8-368.64z"
      ],
      "tags": [
        "Customer-Profil"
      ],
      "defaultCode": 59718,
      "grid": 24
    },
    {
      "paths": [
        "M584.282 319.247h156.612l-216.847-216.847v156.612c-6.024 24.094 24.094 60.235 60.235 60.235zM578.259 240.941l18.071 18.071h-12.047c0 0-6.024-6.024-6.024-6.024v-12.047z",
        "M536.094 12.047h-385.506c-78.306 0-144.565 66.259-144.565 144.565v728.847c0 78.306 66.259 144.565 144.565 144.565h524.047c78.306 0 144.565-66.259 144.565-144.565v-584.282l-283.106-289.129zM764.988 885.459c0 48.188-42.165 84.329-84.329 84.329h-524.047c-48.188 0-84.329-42.165-84.329-84.329v-728.847c0-48.188 42.165-84.329 84.329-84.329h361.412l246.965 246.965v566.212z"
      ],
      "width": 825,
      "tags": [
        "Documentation"
      ],
      "defaultCode": 59719,
      "grid": 24
    },
    {
      "paths": [
        "M660.48 506.88c0-20.48-20.48-40.96-40.96-40.96h-373.76c-20.48 0-40.96 20.48-40.96 40.96s20.48 40.96 40.96 40.96h368.64c25.6 0 46.080-15.36 46.080-40.96z",
        "M983.040 645.12c-15.36-15.36-40.96-15.36-56.32 5.12l-225.28 250.88-112.64-107.52c-15.36-15.36-40.96-15.36-56.32 0s-15.36 40.96 0 56.32l143.36 138.24c5.12 5.12 15.36 10.24 30.72 10.24v0c10.24 0 20.48-5.12 30.72-15.36l256-281.6c5.12-15.36 5.12-40.96-10.24-56.32z",
        "M399.36 942.080h-317.44v-860.16h686.080v460.8c0 20.48 20.48 40.96 40.96 40.96s40.96-20.48 40.96-40.96v-501.76c0-20.48-20.48-40.96-40.96-40.96h-768c-20.48 0-40.96 20.48-40.96 40.96v942.080c0 20.48 20.48 40.96 40.96 40.96h358.4c20.48 0 40.96-20.48 40.96-40.96s-20.48-40.96-40.96-40.96z",
        "M245.76 686.080c-20.48 0-40.96 20.48-40.96 40.96 0 25.6 20.48 40.96 40.96 40.96h112.64c20.48 0 40.96-20.48 40.96-40.96s-20.48-40.96-40.96-40.96h-112.64z",
        "M619.52 240.64h-373.76c-20.48 0-40.96 20.48-40.96 40.96s20.48 40.96 40.96 40.96h368.64c20.48 0 40.96-20.48 40.96-40.96s-15.36-40.96-35.84-40.96z"
      ],
      "tags": [
        "eForms"
      ],
      "defaultCode": 59721,
      "grid": 24
    },
    {
      "paths": [
        "M595.2 812.8h-198.4c-19.2 0-32 12.8-32 32s12.8 32 32 32h198.4c19.2 0 32-12.8 32-32s-19.2-32-32-32z",
        "M992 300.8l-25.6-108.8c0-12.8-6.4-19.2-19.2-19.2l-441.6-172.8c-6.4 0-12.8 0-19.2 0l-441.6 166.4c-12.8 6.4-19.2 12.8-19.2 25.6l-25.6 108.8c0 6.4 0 19.2 6.4 25.6l121.6 134.4c0 0 0 0 0 0v38.4h-38.4c-38.4 0-70.4 32-70.4 70.4v70.4c0 51.2 38.4 89.6 89.6 89.6h19.2v25.6c0 147.2 121.6 268.8 262.4 268.8h204.8c147.2 0 268.8-121.6 268.8-268.8v-25.6h12.8c51.2 0 89.6-38.4 89.6-89.6v-76.8c0-38.4-32-70.4-70.4-70.4h-38.4v-32c0 0 0 0 0 0l121.6-134.4c12.8-12.8 12.8-19.2 12.8-25.6zM806.4 755.2c0 115.2-89.6 204.8-204.8 204.8h-211.2c-115.2 0-204.8-89.6-204.8-204.8v-198.4c19.2 12.8 38.4 19.2 57.6 32 51.2 25.6 108.8 38.4 172.8 44.8l-12.8 108.8c0 6.4 0 19.2 6.4 25.6s12.8 12.8 19.2 12.8h121.6c12.8-6.4 25.6-12.8 25.6-19.2 6.4-6.4 6.4-12.8 6.4-25.6l-6.4-102.4c64-6.4 121.6-25.6 172.8-44.8 19.2-12.8 38.4-19.2 57.6-32v198.4zM467.2 710.4l6.4-70.4c6.4 0 12.8 0 19.2 0s12.8 0 19.2 0l6.4 76.8h-51.2zM819.2 422.4h-646.4l-108.8-128 19.2-76.8 409.6-153.6 416 153.6 19.2 76.8-108.8 128z",
        "M576 140.8c-6.4 0-57.6-12.8-83.2-12.8-19.2 0-70.4 12.8-83.2 12.8s-25.6 12.8-25.6 32v147.2c0 12.8 6.4 25.6 19.2 25.6l76.8 32c6.4 0 6.4 0 12.8 0s6.4 0 12.8 0l76.8-32c12.8-6.4 19.2-12.8 19.2-25.6v-147.2c0-19.2-6.4-32-25.6-32zM544 300.8l-51.2 19.2-44.8-19.2v-108.8c19.2 0 38.4-6.4 44.8-6.4s32 6.4 51.2 6.4v108.8z"
      ],
      "tags": [
        "Enforcement"
      ],
      "defaultCode": 59722,
      "grid": 24
    },
    {
      "paths": [
        "M642.977 851.349v-464.372h-95.256v464.372l-136.93-142.884-65.488 65.488 250.047 250.047 250.047-250.047-65.488-65.488z",
        "M970.419 363.163c-5.953-202.419-172.651-363.163-381.023-363.163-89.302 0-178.605 35.721-250.047 95.256-59.535 53.581-101.209 125.023-113.116 208.372-59.535 11.907-113.116 41.674-148.837 83.349-47.628 53.581-77.395 119.070-77.395 190.512s23.814 136.93 71.442 190.512c47.628 53.581 113.116 83.349 178.605 95.256v0h5.953v-89.302c-95.256-11.907-166.698-95.256-166.698-190.512 0-101.209 77.395-184.558 172.651-190.512l35.721-5.953 5.953-35.721c11.907-142.884 136.93-256 279.814-256 154.791 0 285.767 125.023 285.767 285.767v83.349h65.488c83.349 0 154.791 71.442 154.791 154.791s-71.442 154.791-154.791 154.791h-11.907v95.256h11.907c136.93 0 250.047-113.116 250.047-250.047 5.953-136.93-89.302-238.14-214.326-256z"
      ],
      "width": 1191,
      "tags": [
        "Export"
      ],
      "defaultCode": 59723,
      "grid": 24
    },
    {
      "paths": [
        "M841.143 504.686c0 60.594-49.121 109.714-109.714 109.714s-109.714-49.121-109.714-109.714c0-60.594 49.121-109.714 109.714-109.714s109.714 49.121 109.714 109.714z",
        "M1440.914 475.429v0 0 0c0 0-14.629-21.943-21.943-36.571v0c-36.571-43.886-124.343-160.914-241.371-256-146.286-124.343-299.886-182.857-446.171-182.857s-299.886 58.514-446.171 182.857c-117.029 95.086-204.8 212.114-241.371 256-7.314 7.314-21.943 29.257-21.943 36.571l-21.943 29.257 21.943 29.257c0 0 14.629 21.943 21.943 36.571v0c36.571 43.886 124.343 160.914 241.371 256 146.286 124.343 299.886 182.857 446.171 182.857s299.886-58.514 446.171-182.857c117.029-95.086 204.8-204.8 241.371-256v0c7.314-7.314 21.943-29.257 21.943-36.571l21.943-29.257-21.943-29.257zM731.429 899.657c-190.171 0-394.971-131.657-592.457-387.657 197.486-263.314 402.286-394.971 592.457-394.971s394.971 131.657 592.457 387.657c-197.486 263.314-402.286 394.971-592.457 394.971z",
        "M731.429 182.857c-182.857 0-329.143 146.286-329.143 329.143s146.286 329.143 329.143 329.143 329.143-146.286 329.143-329.143-146.286-329.143-329.143-329.143zM731.429 716.8c-117.029 0-212.114-95.086-212.114-212.114s95.086-212.114 212.114-212.114c117.029 0 212.114 95.086 212.114 212.114s-95.086 212.114-212.114 212.114z"
      ],
      "width": 1463,
      "tags": [
        "eye-view"
      ],
      "defaultCode": 59724,
      "grid": 24
    },
    {
      "paths": [
        "M921.6 224h-96c-57.6 0-102.4 44.8-102.4 102.4v601.6c0 57.6 44.8 102.4 102.4 102.4h96c57.6 0 102.4-44.8 102.4-102.4v-601.6c0-57.6-44.8-102.4-102.4-102.4zM947.2 921.6c0 12.8-6.4 19.2-19.2 19.2h-96c-12.8 0-19.2-6.4-19.2-19.2v-595.2c0-12.8 6.4-19.2 19.2-19.2h96c12.8 0 19.2 6.4 19.2 19.2v595.2z",
        "M563.2 0h-96c-57.6 0-102.4 44.8-102.4 102.4v825.6c0 57.6 44.8 102.4 102.4 102.4h96c57.6 0 102.4-44.8 102.4-102.4v-825.6c-6.4-57.6-51.2-102.4-102.4-102.4zM582.4 921.6c0 12.8-6.4 19.2-19.2 19.2h-96c-12.8 0-19.2-6.4-19.2-19.2v-819.2c0-12.8 6.4-19.2 19.2-19.2h96c12.8 0 19.2 6.4 19.2 19.2v819.2z",
        "M198.4 531.2h-96c-57.6 0-102.4 44.8-102.4 96v294.4c0 57.6 44.8 102.4 102.4 102.4h96c57.6 0 102.4-44.8 102.4-102.4v-294.4c-6.4-51.2-51.2-96-102.4-96zM217.6 921.6c0 12.8-6.4 19.2-19.2 19.2h-96c-12.8 0-19.2-6.4-19.2-19.2v-294.4c0-12.8 6.4-19.2 19.2-19.2h96c12.8 0 19.2 6.4 19.2 19.2v294.4z"
      ],
      "tags": [
        "graph"
      ],
      "defaultCode": 59725,
      "grid": 24
    },
    {
      "paths": [
        "M530.156 501.106c21.787-29.050 36.312-65.362 36.312-101.674 0-87.149-72.624-152.511-152.511-152.511s-152.511 72.624-152.511 152.511c0 36.312 14.525 72.624 36.312 101.674-72.624 43.574-123.461 123.461-123.461 210.61v29.050c0 21.787 21.787 43.574 43.574 43.574h399.433c21.787 0 43.574-21.787 43.574-43.574v-29.050c-7.262-94.411-58.099-174.298-130.723-210.61zM413.957 464.794c-36.312 0-72.624-29.050-72.624-72.624s29.050-72.624 72.624-72.624c36.312 0 72.624 29.050 72.624 72.624s-36.312 72.624-72.624 72.624z",
        "M784.34 384.908h167.035c21.787 0 43.574-21.787 43.574-43.574s-21.787-43.574-43.574-43.574h-167.035c-21.787 0-43.574 21.787-43.574 43.574s21.787 43.574 43.574 43.574z",
        "M1241.872 639.092h-457.532c-21.787 0-43.574 21.787-43.574 43.574s21.787 43.574 43.574 43.574h457.532c21.787 0 43.574-21.787 43.574-43.574s-21.787-43.574-43.574-43.574z",
        "M1241.872 464.794h-457.532c-21.787 0-43.574 21.787-43.574 43.574s21.787 43.574 43.574 43.574h457.532c21.787 0 43.574-21.787 43.574-43.574s-21.787-43.574-43.574-43.574z",
        "M1321.759 0h-1191.035c-72.624 0-130.723 58.099-130.723 130.723v762.553c0 72.624 58.099 130.723 130.723 130.723h1198.298c72.624 0 130.723-58.099 130.723-130.723v-762.553c-7.262-72.624-65.362-130.723-137.986-130.723zM1365.333 893.277c0 21.787-21.787 43.574-43.574 43.574h-1191.035c-21.787 0-43.574-21.787-43.574-43.574v-762.553c0-21.787 21.787-43.574 43.574-43.574h1198.298c21.787 0 43.574 21.787 43.574 43.574v762.553z"
      ],
      "width": 1452,
      "tags": [
        "ID-Card"
      ],
      "defaultCode": 59726,
      "grid": 24
    },
    {
      "paths": [
        "M512 0c-34.133 0-59.733 25.6-59.733 68.267v187.733c0 34.133 25.6 68.267 68.267 68.267s59.733-34.133 59.733-68.267v-187.733c0-42.667-34.133-68.267-68.267-68.267z",
        "M324.267 512c0-34.133-25.6-68.267-68.267-68.267h-187.733c-42.667 8.533-68.267 34.133-68.267 68.267s25.6 68.267 68.267 68.267h187.733c34.133 0 68.267-34.133 68.267-68.267z",
        "M964.267 452.267h-196.267c-34.133 0-59.733 25.6-59.733 59.733s25.6 68.267 59.733 68.267h196.267c34.133 0 59.733-34.133 59.733-68.267s-25.6-59.733-59.733-59.733z",
        "M512 708.267c-34.133 0-59.733 25.6-59.733 59.733v196.267c0 34.133 25.6 59.733 59.733 59.733s68.267-25.6 68.267-68.267v-187.733c0-34.133-34.133-59.733-68.267-59.733z",
        "M776.533 682.667c-25.6-25.6-68.267-25.6-93.867 0s-25.6 68.267 0 93.867l136.533 136.533c25.6 25.6 68.267 25.6 93.867 0s25.6-68.267 0-93.867l-136.533-136.533z",
        "M196.267 110.933c-25.6-25.6-59.733-25.6-85.333 0s-25.6 59.733 0 85.333l136.533 136.533c25.6 25.6 68.267 25.6 93.867 0s25.6-68.267 0-93.867l-145.067-128z",
        "M776.533 332.8l136.533-136.533c25.6-25.6 25.6-59.733 0-85.333s-68.267-25.6-93.867 0l-136.533 136.533c-25.6 25.6-25.6 59.733 0 85.333s68.267 25.6 93.867 0z",
        "M247.467 682.667l-136.533 136.533c-25.6 25.6-25.6 68.267 0 93.867s59.733 25.6 85.333 0l136.533-136.533c25.6-25.6 25.6-68.267 0-93.867s-59.733-25.6-85.333 0z"
      ],
      "tags": [
        "Loading"
      ],
      "defaultCode": 59727,
      "grid": 24
    },
    {
      "paths": [
        "M499.2 0h25.6c28.277 0 51.2 22.923 51.2 51.2v217.6c0 28.277-22.923 51.2-51.2 51.2h-25.6c-28.277 0-51.2-22.923-51.2-51.2v-217.6c0-28.277 22.923-51.2 51.2-51.2z",
        "M51.2 448h217.6c28.277 0 51.2 22.923 51.2 51.2v25.6c0 28.277-22.923 51.2-51.2 51.2h-217.6c-28.277 0-51.2-22.923-51.2-51.2v-25.6c0-28.277 22.923-51.2 51.2-51.2z",
        "M755.2 448h217.6c28.277 0 51.2 22.923 51.2 51.2v25.6c0 28.277-22.923 51.2-51.2 51.2h-217.6c-28.277 0-51.2-22.923-51.2-51.2v-25.6c0-28.277 22.923-51.2 51.2-51.2z",
        "M499.2 704h25.6c28.277 0 51.2 22.923 51.2 51.2v217.6c0 28.277-22.923 51.2-51.2 51.2h-25.6c-28.277 0-51.2-22.923-51.2-51.2v-217.6c0-28.277 22.923-51.2 51.2-51.2z",
        "M676.204 766.715c-19.994-19.999-19.994-52.413 0-72.407l18.104-18.104c19.994-19.994 52.408-19.994 72.407 0l153.866 153.866c19.994 19.994 19.994 52.413 0 72.407l-18.104 18.104c-19.994 19.994-52.413 19.994-72.407 0l-153.866-153.866z",
        "M100.204 190.713c-19.995-19.995-19.995-52.413 0-72.408l18.102-18.102c19.995-19.995 52.413-19.995 72.408 0l153.867 153.866c19.995 19.995 19.995 52.413 0 72.408l-18.102 18.102c-19.995 19.995-52.413 19.995-72.408 0l-153.866-153.867z",
        "M830.070 100.204c19.999-19.995 52.413-19.995 72.407 0l18.104 18.102c19.994 19.995 19.994 52.413 0 72.408l-153.866 153.867c-19.994 19.995-52.413 19.995-72.407 0l-18.104-18.102c-19.994-19.995-19.994-52.413 0-72.408l153.866-153.866z",
        "M254.071 676.204c19.995-19.994 52.413-19.994 72.408 0l18.102 18.104c19.995 19.994 19.995 52.408 0 72.407l-153.866 153.866c-19.995 19.994-52.413 19.994-72.408 0l-18.102-18.104c-19.995-19.994-19.995-52.413 0-72.407l153.867-153.866z"
      ],
      "tags": [
        "Loading-spinner"
      ],
      "defaultCode": 59728,
      "grid": 24
    },
    {
      "paths": [
        "M876.8 659.2c-57.6-57.6-121.6-96-192-121.6 76.8-51.2 128-140.8 128-243.2-6.4-160-134.4-294.4-300.8-294.4s-294.4 134.4-294.4 294.4c0 102.4 51.2 192 128 243.2-70.4 25.6-140.8 64-192 121.6-102.4 102.4-153.6 230.4-153.6 364.8h83.2c0-236.8 192-435.2 435.2-435.2s435.2 192 435.2 435.2h70.4c0-134.4-51.2-262.4-147.2-364.8zM512 512c-121.6 0-217.6-96-217.6-217.6s96-211.2 217.6-211.2 217.6 96 217.6 217.6-96 211.2-217.6 211.2z"
      ],
      "tags": [
        "person"
      ],
      "defaultCode": 59729,
      "grid": 24
    },
    {
      "paths": [
        "M885.76 373.76h-235.52v-235.52c-0-76.8-61.44-138.24-138.24-138.24s-138.24 61.44-138.24 138.24v235.52h-235.52c-76.8 0-138.24 61.44-138.24 138.24s61.44 138.24 138.24 138.24h235.52v235.52c0 76.8 61.44 138.24 138.24 138.24s138.24-61.44 138.24-138.24v-235.52h235.52c76.8 0 138.24-61.44 138.24-138.24s-61.44-138.24-138.24-138.24zM885.76 604.16h-281.6v281.6c0 51.2-40.96 92.16-92.16 92.16s-92.16-40.96-92.16-92.16v-281.6h-281.6c-51.2 0-92.16-40.96-92.16-92.16s40.96-92.16 92.16-92.16h281.6v-281.6c0-51.2 40.96-92.16 92.16-92.16s92.16 40.96 92.16 92.16v281.6h281.6c51.2 0 92.16 40.96 92.16 92.16s-40.96 92.16-92.16 92.16z"
      ],
      "tags": [
        "Plus"
      ],
      "defaultCode": 59730,
      "grid": 24
    },
    {
      "paths": [
        "M833.829 394.971l-287.695-4.876 107.276-370.59-507.124 604.648 297.448 4.876-73.143 370.59 463.238-604.648zM307.2 551.010l170.667-204.8-34.133 121.905h238.933l-170.667 224.305 29.257-141.41-234.057 0z"
      ],
      "width": 975,
      "tags": [
        "review"
      ],
      "defaultCode": 59731,
      "grid": 24
    },
    {
      "paths": [
        "M256 460.8v102.4h512v-102.4h-224z",
        "M876.8 147.2c-102.4-96-230.4-147.2-364.8-147.2s-262.4 51.2-364.8 147.2c-96 102.4-147.2 230.4-147.2 364.8s51.2 262.4 147.2 364.8c102.4 96 230.4 147.2 364.8 147.2s262.4-51.2 364.8-147.2c96-102.4 147.2-230.4 147.2-364.8s-51.2-262.4-147.2-364.8zM512 947.2c-236.8 0-435.2-192-435.2-435.2s192-435.2 435.2-435.2 435.2 192 435.2 435.2-198.4 435.2-435.2 435.2z"
      ],
      "tags": [
        "sanction"
      ],
      "defaultCode": 59732,
      "grid": 24
    },
    {
      "paths": [
        "M1003.52 916.48l-199.68-199.68c133.12-174.080 117.76-424.96-40.96-583.68-174.080-179.2-455.68-179.2-629.76 0-174.080 174.080-174.080 455.68 0 634.88 158.72 158.72 409.6 174.080 583.68 40.96l199.68 199.68c25.6 25.6 66.56 25.6 92.16 0 20.48-30.72 20.48-66.56-5.12-92.16zM670.72 670.72c-122.88 122.88-327.68 122.88-450.56 0s-122.88-327.68 0-450.56 327.68-122.88 450.56 0c128 128 128 327.68 0 450.56z"
      ],
      "tags": [
        "Search"
      ],
      "defaultCode": 59733,
      "grid": 24
    },
    {
      "paths": [
        "M512 281.6c-128 0-230.4 102.4-230.4 230.4s102.4 230.4 230.4 230.4c128 0 230.4-102.4 230.4-230.4s-102.4-230.4-230.4-230.4zM512 665.6c-81.92 0-153.6-66.56-153.6-153.6 0-81.92 66.56-153.6 153.6-153.6 81.92 0 153.6 66.56 153.6 153.6 0 81.92-71.68 153.6-153.6 153.6z",
        "M1024 578.56v-133.12l-138.24-35.84c-10.24-30.72-20.48-61.44-35.84-87.040l71.68-122.88-97.28-97.28-122.88 71.68c-25.6-15.36-56.32-30.72-87.040-35.84l-35.84-138.24h-133.12l-35.84 138.24c-30.72 5.12-61.44 20.48-92.16 35.84l-117.76-71.68-97.28 97.28 71.68 122.88c-15.36 25.6-30.72 56.32-35.84 87.040l-138.24 35.84v133.12l138.24 35.84c10.24 30.72 20.48 61.44 35.84 87.040l-71.68 122.88 97.28 97.28 122.88-71.68c25.6 15.36 56.32 30.72 87.040 35.84l35.84 138.24h133.12l35.84-138.24c30.72-10.24 61.44-20.48 87.040-35.84l122.88 71.68 97.28-97.28-71.68-122.88c15.36-25.6 30.72-56.32 35.84-87.040l138.24-35.84zM819.2 552.96l-5.12 25.6c-10.24 35.84-20.48 71.68-46.080 107.52l-15.36 20.48 61.44 107.52 0 5.12-107.52-61.44-20.48 15.36c-30.72 20.48-66.56 35.84-107.52 46.080h-25.6l-30.72 122.88h-15.36l-35.84-122.88-25.6-5.12c-35.84-10.24-71.68-20.48-107.52-46.080l-20.48-15.36-107.52 66.56-5.12-5.12 61.44-107.52-15.36-20.48c-20.48-30.72-35.84-66.56-46.080-107.52v-25.6l-122.88-30.72v-15.36l122.88-35.84 5.12-25.6c5.12-35.84 20.48-71.68 40.96-102.4l15.36-20.48-61.44-112.64 5.12-5.12 107.52 61.44 20.48-15.36c35.84-20.48 71.68-35.84 112.64-40.96l20.48-5.12 30.72-122.88h10.24l40.96 122.88 25.6 5.12c35.84 10.24 71.68 20.48 107.52 46.080l20.48 15.36 107.52-66.56 5.12 5.12-61.44 107.52 15.36 20.48c20.48 30.72 35.84 66.56 46.080 107.52v25.6l122.88 30.72v10.24l-122.88 40.96z"
      ],
      "tags": [
        "Setting"
      ],
      "defaultCode": 59734,
      "grid": 24
    },
    {
      "paths": [
        "M834.56 189.44c-61.44-61.44-143.36-107.52-225.28-128v81.92c168.96 51.2 291.84 209.92 291.84 394.24 0 225.28-184.32 409.6-409.6 409.6s-409.6-184.32-409.6-409.6c0-184.32 122.88-343.040 291.84-394.24v-87.040c-87.040 25.6-168.96 66.56-230.4 133.12-92.16 92.16-143.36 215.040-143.36 343.040 0 133.12 51.2 256 143.36 348.16s215.040 143.36 348.16 143.36 256-51.2 348.16-143.36c92.16-92.16 143.36-215.040 143.36-348.16-5.12-128-56.32-250.88-148.48-343.040z",
        "M450.56 0h81.92v552.96h-81.92v-552.96z"
      ],
      "tags": [
        "sign-out"
      ],
      "defaultCode": 59735,
      "grid": 24
    },
    {
      "paths": [
        "M860.16 128c-97.28-15.36-184.32-71.68-230.4-102.4-30.72-15.36-66.56-25.6-97.28-25.6-35.84 0-71.68 10.24-102.4 30.72-46.080 30.72-133.12 81.92-230.4 102.4-56.32 5.12-97.28 56.32-97.28 117.76v240.64c0 81.92 20.48 158.72 66.56 230.4 35.84 56.32 81.92 112.64 143.36 163.84 102.4 87.040 199.68 128 204.8 133.12l15.36 5.12 15.36-5.12c5.12 0 102.4-46.080 204.8-133.12 61.44-51.2 107.52-107.52 143.36-163.84 46.080-71.68 66.56-153.6 66.56-230.4v-240.64c-5.12-61.44-46.080-112.64-102.4-122.88zM880.64 491.52c0 117.76-61.44 230.4-179.2 332.8-66.56 61.44-138.24 97.28-168.96 112.64-30.72-15.36-102.4-56.32-168.96-112.64-117.76-102.4-179.2-215.040-179.2-332.8v-240.64c0-20.48 15.36-35.84 30.72-40.96 112.64-20.48 209.92-76.8 261.12-112.64 15.36-10.24 35.84-15.36 51.2-15.36 20.48 0 35.84 5.12 51.2 15.36 51.2 35.84 148.48 92.16 261.12 112.64 20.48 5.12 30.72 20.48 30.72 40.96v240.64z",
        "M552.96 168.96l-20.48-15.36-25.6 15.36c-46.080 35.84-122.88 76.8-215.040 102.4l-30.72 10.24v209.92c0 51.2 15.36 97.28 46.080 148.48 25.6 40.96 61.44 81.92 107.52 122.88 30.72 25.6 61.44 46.080 97.28 66.56l20.48 15.36 20.48-15.36c35.84-20.48 71.68-46.080 102.4-71.68 46.080-40.96 81.92-81.92 102.4-122.88 25.6-46.080 40.96-97.28 40.96-143.36v-209.92l-30.72-10.24c-87.040-25.6-163.84-66.56-215.040-102.4zM716.8 491.52c0 35.84-10.24 71.68-30.72 107.52s-51.2 66.56-87.040 102.4c-20.48 20.48-46.080 35.84-66.56 51.2-20.48-15.36-46.080-30.72-66.56-46.080-40.96-35.84-71.68-66.56-92.16-102.4-20.48-40.96-30.72-76.8-30.72-112.64v-148.48c76.8-25.6 138.24-61.44 189.44-87.040 46.080 30.72 112.64 61.44 189.44 87.040v148.48z"
      ],
      "tags": [
        "System-Users"
      ],
      "defaultCode": 59737,
      "grid": 24
    },
    {
      "paths": [
        "M875.52 148.48c-97.28-97.28-225.28-148.48-363.52-148.48s-266.24 51.2-363.52 148.48c-97.28 97.28-148.48 225.28-148.48 363.52s51.2 266.24 148.48 363.52c97.28 97.28 225.28 148.48 363.52 148.48s266.24-51.2 363.52-148.48c97.28-97.28 148.48-225.28 148.48-363.52s-51.2-266.24-148.48-363.52zM332.8 117.76c-10.24 15.36-15.36 25.6-25.6 40.96-10.24 25.6-20.48 51.2-30.72 76.8h-97.28c40.96-51.2 92.16-87.040 153.6-117.76zM128 317.44h128c-10.24 51.2-15.36 102.4-20.48 153.6h-153.6c5.12-56.32 20.48-107.52 46.080-153.6zM128 706.56c-25.6-46.080-40.96-102.4-46.080-153.6h153.6c0 56.32 10.24 107.52 20.48 153.6h-128zM179.2 788.48h97.28c10.24 25.6 20.48 51.2 30.72 76.8 5.12 15.36 15.36 30.72 25.6 40.96-61.44-30.72-112.64-66.56-153.6-117.76zM471.040 931.84c-30.72-15.36-66.56-51.2-92.16-107.52-5.12-10.24-10.24-25.6-15.36-40.96h107.52v148.48zM471.040 706.56h-133.12c-10.24-46.080-20.48-102.4-20.48-153.6h153.6v153.6zM471.040 471.040h-153.6c0-56.32 10.24-107.52 20.48-153.6h133.12v153.6zM471.040 235.52h-107.52c5.12-15.36 10.24-25.6 15.36-40.96 25.6-51.2 56.32-87.040 92.16-107.52v148.48zM896 317.44c25.6 46.080 40.96 102.4 46.080 153.6h-153.6c0-56.32-10.24-107.52-20.48-153.6h128zM844.8 235.52h-97.28c-10.24-25.6-20.48-51.2-30.72-76.8-5.12-15.36-15.36-30.72-25.6-40.96 61.44 30.72 112.64 66.56 153.6 117.76zM552.96 92.16c30.72 15.36 66.56 51.2 92.16 107.52 5.12 10.24 10.24 25.6 15.36 40.96h-107.52v-148.48zM552.96 317.44h133.12c10.24 46.080 20.48 102.4 20.48 153.6h-153.6v-153.6zM645.12 829.44c-25.6 51.2-56.32 87.040-92.16 107.52v-143.36h107.52c-5.12 10.24-10.24 20.48-15.36 35.84zM552.96 706.56v-153.6h153.6c0 56.32-10.24 107.52-20.48 153.6h-133.12zM691.2 906.24c10.24-15.36 15.36-25.6 25.6-40.96 10.24-25.6 20.48-51.2 30.72-76.8h97.28c-40.96 51.2-92.16 87.040-153.6 117.76zM896 706.56h-128c10.24-51.2 15.36-102.4 20.48-153.6h153.6c-5.12 56.32-20.48 107.52-46.080 153.6z"
      ],
      "tags": [
        "world"
      ],
      "defaultCode": 59739,
      "grid": 24
    },
    {
      "paths": [
        "M910.222 102.4l-45.511-45.511-409.6 409.6-409.6-409.6-45.511 45.511 409.6 409.6-409.6 409.6 45.511 45.511 409.6-409.6 409.6 409.6 45.511-45.511-409.6-409.6z"
      ],
      "width": 910,
      "tags": [
        "Wrong"
      ],
      "defaultCode": 59740,
      "grid": 24
    }
  ],
  "colorThemes": [
    [
      [
        0,
        0,
        0,
        1
      ],
      [
        201,
        31,
        55,
        1
      ],
      [
        179,
        95,
        165,
        1
      ],
      [
        127,
        143,
        164,
        1
      ],
      [
        255,
        255,
        255,
        1
      ]
    ],
    [
      [
        0,
        0,
        0,
        1
      ],
      [
        201,
        31,
        55,
        1
      ],
      [
        250,
        201,
        23,
        1
      ],
      [
        127,
        143,
        164,
        1
      ],
      [
        255,
        255,
        255,
        1
      ]
    ]
  ],
  "colorThemeIdx": 1,
  "preferences": {
    "showGlyphs": true,
    "showQuickUse": true,
    "showQuickUse2": true,
    "showSVGs": true,
    "fontPref": {
      "prefix": "icon-",
      "metadata": {
        "fontFamily": "icomoon",
        "majorVersion": 1,
        "minorVersion": 0
      },
      "metrics": {
        "emSize": 1024,
        "baseline": 6.25,
        "whitespace": 50
      },
      "embed": false
    },
    "imagePref": {
      "prefix": "icon-",
      "png": true,
      "useClassSelector": true,
      "color": 0,
      "bgColor": 16777215,
      "classSelector": ".icon",
      "name": "icomoon"
    },
    "historySize": 50,
    "showCodes": true,
    "gridSize": 16
  },
  "IcoMoonType": "icon-set"
}